EESchema Schematic File Version 2
LIBS:power
LIBS:device
LIBS:transistors
LIBS:conn
LIBS:linear
LIBS:regul
LIBS:74xx
LIBS:cmos4000
LIBS:adc-dac
LIBS:memory
LIBS:xilinx
LIBS:special
LIBS:microcontrollers
LIBS:dsp
LIBS:microchip
LIBS:analog_switches
LIBS:motorola
LIBS:texas
LIBS:intel
LIBS:audio
LIBS:interface
LIBS:digital-audio
LIBS:philips
LIBS:display
LIBS:cypress
LIBS:siliconi
LIBS:opto
LIBS:atmel
LIBS:contrib
LIBS:valves
LIBS:BasicOutputBoard-cache
EELAYER 24 0
EELAYER END
$Descr User 11000 8500
encoding utf-8
Sheet 1 1
Title "Basic Output Board"
Date "18 jun 2012"
Rev "1"
Comp ""
Comment1 ""
Comment2 ""
Comment3 ""
Comment4 ""
$EndDescr
$Comp
L GND #PWR01
U 1 1 4FDF213B
P 850 3700
F 0 "#PWR01" H 850 3700 30  0001 C CNN
F 1 "GND" H 850 3630 30  0001 C CNN
F 2 "" H 850 3700 60  0001 C CNN
F 3 "" H 850 3700 60  0001 C CNN
	1    850  3700
	1    0    0    -1  
$EndComp
$Comp
L CONN_2 P15
U 1 1 4FDF20CE
P 1200 3700
F 0 "P15" V 1150 3700 40  0000 C CNN
F 1 "CONN_2" V 1250 3700 40  0000 C CNN
F 2 "" H 1200 3700 60  0001 C CNN
F 3 "" H 1200 3700 60  0001 C CNN
	1    1200 3700
	1    0    0    -1  
$EndComp
$Comp
L +BATT #PWR02
U 1 1 4FDD4479
P 1450 4200
F 0 "#PWR02" H 1450 4150 20  0001 C CNN
F 1 "+BATT" H 1450 4300 30  0000 C CNN
F 2 "" H 1450 4200 60  0001 C CNN
F 3 "" H 1450 4200 60  0001 C CNN
	1    1450 4200
	1    0    0    -1  
$EndComp
$Comp
L MOSFET_N Q2
U 1 1 4FD46200
P 5900 1000
F 0 "Q2" H 6050 1000 50  0000 L CNN
F 1 "MOSFET_N" H 5900 1150 50  0000 R CNN
F 2 "" H 5900 1000 60  0001 C CNN
F 3 "" H 5900 1000 60  0001 C CNN
	1    5900 1000
	1    0    0    -1  
$EndComp
$Comp
L MOSFET_N Q1
U 1 1 4FD461C0
P 3700 1000
F 0 "Q1" H 3850 1000 50  0000 L CNN
F 1 "MOSFET_N" H 3700 1150 50  0000 R CNN
F 2 "" H 3700 1000 60  0001 C CNN
F 3 "" H 3700 1000 60  0001 C CNN
	1    3700 1000
	1    0    0    -1  
$EndComp
$Comp
L +BATT #PWR03
U 1 1 4FD3FEA4
P 9050 5950
F 0 "#PWR03" H 9050 5900 20  0001 C CNN
F 1 "+BATT" H 9050 6050 30  0000 C CNN
F 2 "" H 9050 5950 60  0001 C CNN
F 3 "" H 9050 5950 60  0001 C CNN
	1    9050 5950
	1    0    0    -1  
$EndComp
$Comp
L CONN_2 P8
U 1 1 4FD3A938
P 9100 6350
F 0 "P8" V 9050 6350 40  0000 C CNN
F 1 "CONN_2" V 9150 6350 40  0000 C CNN
F 2 "" H 9100 6350 60  0001 C CNN
F 3 "" H 9100 6350 60  0001 C CNN
	1    9100 6350
	1    0    0    -1  
$EndComp
$Comp
L GND #PWR04
U 1 1 4FD3A937
P 8250 6650
F 0 "#PWR04" H 8250 6650 30  0001 C CNN
F 1 "GND" H 8250 6580 30  0001 C CNN
F 2 "" H 8250 6650 60  0001 C CNN
F 3 "" H 8250 6650 60  0001 C CNN
	1    8250 6650
	1    0    0    -1  
$EndComp
$Comp
L DIODE D8
U 1 1 4FD3A936
P 8550 6350
F 0 "D8" H 8550 6450 40  0000 C CNN
F 1 "1N4001" H 8550 6250 40  0000 C CNN
F 2 "" H 8550 6350 60  0001 C CNN
F 3 "" H 8550 6350 60  0001 C CNN
	1    8550 6350
	0    -1   -1   0   
$EndComp
$Comp
L R R16
U 1 1 4FD3A935
P 7400 6350
F 0 "R16" V 7480 6350 50  0000 C CNN
F 1 "2.7k" V 7400 6350 50  0000 C CNN
F 2 "" H 7400 6350 60  0001 C CNN
F 3 "" H 7400 6350 60  0001 C CNN
	1    7400 6350
	1    0    0    -1  
$EndComp
$Comp
L LED D16
U 1 1 4FD3A934
P 7650 6050
F 0 "D16" H 7650 6150 50  0000 C CNN
F 1 "LED" H 7650 5950 50  0000 C CNN
F 2 "" H 7650 6050 60  0001 C CNN
F 3 "" H 7650 6050 60  0001 C CNN
	1    7650 6050
	-1   0    0    1   
$EndComp
$Comp
L MOSFET_N Q8
U 1 1 4FD3A932
P 8150 6150
F 0 "Q8" H 8160 6320 60  0000 R CNN
F 1 "MOSFET_N" H 8160 6000 60  0000 R CNN
F 2 "" H 8150 6150 60  0001 C CNN
F 3 "" H 8150 6150 60  0001 C CNN
	1    8150 6150
	1    0    0    -1  
$EndComp
$Comp
L +BATT #PWR05
U 1 1 4FD3A92D
P 9050 4850
F 0 "#PWR05" H 9050 4800 20  0001 C CNN
F 1 "+BATT" H 9050 4950 30  0000 C CNN
F 2 "" H 9050 4850 60  0001 C CNN
F 3 "" H 9050 4850 60  0001 C CNN
	1    9050 4850
	1    0    0    -1  
$EndComp
$Comp
L CONN_2 P7
U 1 1 4FD3A92C
P 9100 5250
F 0 "P7" V 9050 5250 40  0000 C CNN
F 1 "CONN_2" V 9150 5250 40  0000 C CNN
F 2 "" H 9100 5250 60  0001 C CNN
F 3 "" H 9100 5250 60  0001 C CNN
	1    9100 5250
	1    0    0    -1  
$EndComp
$Comp
L GND #PWR06
U 1 1 4FD3A92B
P 8250 5550
F 0 "#PWR06" H 8250 5550 30  0001 C CNN
F 1 "GND" H 8250 5480 30  0001 C CNN
F 2 "" H 8250 5550 60  0001 C CNN
F 3 "" H 8250 5550 60  0001 C CNN
	1    8250 5550
	1    0    0    -1  
$EndComp
$Comp
L DIODE D7
U 1 1 4FD3A92A
P 8550 5250
F 0 "D7" H 8550 5350 40  0000 C CNN
F 1 "1N4001" H 8550 5150 40  0000 C CNN
F 2 "" H 8550 5250 60  0001 C CNN
F 3 "" H 8550 5250 60  0001 C CNN
	1    8550 5250
	0    -1   -1   0   
$EndComp
$Comp
L R R15
U 1 1 4FD3A929
P 7400 5250
F 0 "R15" V 7480 5250 50  0000 C CNN
F 1 "2.7k" V 7400 5250 50  0000 C CNN
F 2 "" H 7400 5250 60  0001 C CNN
F 3 "" H 7400 5250 60  0001 C CNN
	1    7400 5250
	1    0    0    -1  
$EndComp
$Comp
L LED D15
U 1 1 4FD3A928
P 7650 4950
F 0 "D15" H 7650 5050 50  0000 C CNN
F 1 "LED" H 7650 4850 50  0000 C CNN
F 2 "" H 7650 4950 60  0001 C CNN
F 3 "" H 7650 4950 60  0001 C CNN
	1    7650 4950
	-1   0    0    1   
$EndComp
$Comp
L MOSFET_N Q7
U 1 1 4FD3A926
P 8150 5050
F 0 "Q7" H 8160 5220 60  0000 R CNN
F 1 "MOSFET_N" H 8160 4900 60  0000 R CNN
F 2 "" H 8150 5050 60  0001 C CNN
F 3 "" H 8150 5050 60  0001 C CNN
	1    8150 5050
	1    0    0    -1  
$EndComp
$Comp
L +BATT #PWR07
U 1 1 4FD3A911
P 9050 2900
F 0 "#PWR07" H 9050 2850 20  0001 C CNN
F 1 "+BATT" H 9050 3000 30  0000 C CNN
F 2 "" H 9050 2900 60  0001 C CNN
F 3 "" H 9050 2900 60  0001 C CNN
	1    9050 2900
	1    0    0    -1  
$EndComp
$Comp
L CONN_2 P5
U 1 1 4FD3A910
P 9100 3300
F 0 "P5" V 9050 3300 40  0000 C CNN
F 1 "CONN_2" V 9150 3300 40  0000 C CNN
F 2 "" H 9100 3300 60  0001 C CNN
F 3 "" H 9100 3300 60  0001 C CNN
	1    9100 3300
	1    0    0    -1  
$EndComp
$Comp
L GND #PWR08
U 1 1 4FD3A90F
P 8250 3600
F 0 "#PWR08" H 8250 3600 30  0001 C CNN
F 1 "GND" H 8250 3530 30  0001 C CNN
F 2 "" H 8250 3600 60  0001 C CNN
F 3 "" H 8250 3600 60  0001 C CNN
	1    8250 3600
	1    0    0    -1  
$EndComp
$Comp
L DIODE D5
U 1 1 4FD3A90E
P 8550 3300
F 0 "D5" H 8550 3400 40  0000 C CNN
F 1 "1N4001" H 8550 3200 40  0000 C CNN
F 2 "" H 8550 3300 60  0001 C CNN
F 3 "" H 8550 3300 60  0001 C CNN
	1    8550 3300
	0    -1   -1   0   
$EndComp
$Comp
L R R13
U 1 1 4FD3A90D
P 7400 3300
F 0 "R13" V 7480 3300 50  0000 C CNN
F 1 "2.7k" V 7400 3300 50  0000 C CNN
F 2 "" H 7400 3300 60  0001 C CNN
F 3 "" H 7400 3300 60  0001 C CNN
	1    7400 3300
	1    0    0    -1  
$EndComp
$Comp
L LED D13
U 1 1 4FD3A90C
P 7650 3000
F 0 "D13" H 7650 3100 50  0000 C CNN
F 1 "LED" H 7650 2900 50  0000 C CNN
F 2 "" H 7650 3000 60  0001 C CNN
F 3 "" H 7650 3000 60  0001 C CNN
	1    7650 3000
	-1   0    0    1   
$EndComp
$Comp
L MOSFET_N Q5
U 1 1 4FD3A90A
P 8150 3100
F 0 "Q5" H 8160 3270 60  0000 R CNN
F 1 "MOSFET_N" H 8160 2950 60  0000 R CNN
F 2 "" H 8150 3100 60  0001 C CNN
F 3 "" H 8150 3100 60  0001 C CNN
	1    8150 3100
	1    0    0    -1  
$EndComp
$Comp
L +BATT #PWR09
U 1 1 4FD3A8F6
P 9050 1900
F 0 "#PWR09" H 9050 1850 20  0001 C CNN
F 1 "+BATT" H 9050 2000 30  0000 C CNN
F 2 "" H 9050 1900 60  0001 C CNN
F 3 "" H 9050 1900 60  0001 C CNN
	1    9050 1900
	1    0    0    -1  
$EndComp
$Comp
L CONN_2 P4
U 1 1 4FD3A8F5
P 9100 2300
F 0 "P4" V 9050 2300 40  0000 C CNN
F 1 "CONN_2" V 9150 2300 40  0000 C CNN
F 2 "" H 9100 2300 60  0001 C CNN
F 3 "" H 9100 2300 60  0001 C CNN
	1    9100 2300
	1    0    0    -1  
$EndComp
$Comp
L GND #PWR010
U 1 1 4FD3A8F4
P 8250 2600
F 0 "#PWR010" H 8250 2600 30  0001 C CNN
F 1 "GND" H 8250 2530 30  0001 C CNN
F 2 "" H 8250 2600 60  0001 C CNN
F 3 "" H 8250 2600 60  0001 C CNN
	1    8250 2600
	1    0    0    -1  
$EndComp
$Comp
L DIODE D4
U 1 1 4FD3A8F3
P 8550 2300
F 0 "D4" H 8550 2400 40  0000 C CNN
F 1 "1N4001" H 8550 2200 40  0000 C CNN
F 2 "" H 8550 2300 60  0001 C CNN
F 3 "" H 8550 2300 60  0001 C CNN
	1    8550 2300
	0    -1   -1   0   
$EndComp
$Comp
L R R12
U 1 1 4FD3A8F2
P 7400 2300
F 0 "R12" V 7480 2300 50  0000 C CNN
F 1 "2.7k" V 7400 2300 50  0000 C CNN
F 2 "" H 7400 2300 60  0001 C CNN
F 3 "" H 7400 2300 60  0001 C CNN
	1    7400 2300
	1    0    0    -1  
$EndComp
$Comp
L LED D12
U 1 1 4FD3A8F1
P 7650 2000
F 0 "D12" H 7650 2100 50  0000 C CNN
F 1 "LED" H 7650 1900 50  0000 C CNN
F 2 "" H 7650 2000 60  0001 C CNN
F 3 "" H 7650 2000 60  0001 C CNN
	1    7650 2000
	-1   0    0    1   
$EndComp
$Comp
L MOSFET_N Q4
U 1 1 4FD3A8EF
P 8150 2100
F 0 "Q4" H 8160 2270 60  0000 R CNN
F 1 "MOSFET_N" H 8160 1950 60  0000 R CNN
F 2 "" H 8150 2100 60  0001 C CNN
F 3 "" H 8150 2100 60  0001 C CNN
	1    8150 2100
	1    0    0    -1  
$EndComp
$Comp
L +BATT #PWR011
U 1 1 4FD3A8EB
P 9050 800
F 0 "#PWR011" H 9050 750 20  0001 C CNN
F 1 "+BATT" H 9050 900 30  0000 C CNN
F 2 "" H 9050 800 60  0001 C CNN
F 3 "" H 9050 800 60  0001 C CNN
	1    9050 800 
	1    0    0    -1  
$EndComp
$Comp
L CONN_2 P3
U 1 1 4FD3A8EA
P 9100 1200
F 0 "P3" V 9050 1200 40  0000 C CNN
F 1 "CONN_2" V 9150 1200 40  0000 C CNN
F 2 "" H 9100 1200 60  0001 C CNN
F 3 "" H 9100 1200 60  0001 C CNN
	1    9100 1200
	1    0    0    -1  
$EndComp
$Comp
L GND #PWR012
U 1 1 4FD3A8E9
P 8250 1500
F 0 "#PWR012" H 8250 1500 30  0001 C CNN
F 1 "GND" H 8250 1430 30  0001 C CNN
F 2 "" H 8250 1500 60  0001 C CNN
F 3 "" H 8250 1500 60  0001 C CNN
	1    8250 1500
	1    0    0    -1  
$EndComp
$Comp
L DIODE D3
U 1 1 4FD3A8E8
P 8550 1200
F 0 "D3" H 8550 1300 40  0000 C CNN
F 1 "1N4001" H 8550 1100 40  0000 C CNN
F 2 "" H 8550 1200 60  0001 C CNN
F 3 "" H 8550 1200 60  0001 C CNN
	1    8550 1200
	0    -1   -1   0   
$EndComp
$Comp
L R R11
U 1 1 4FD3A8E7
P 7400 1200
F 0 "R11" V 7480 1200 50  0000 C CNN
F 1 "2.7k" V 7400 1200 50  0000 C CNN
F 2 "" H 7400 1200 60  0001 C CNN
F 3 "" H 7400 1200 60  0001 C CNN
	1    7400 1200
	1    0    0    -1  
$EndComp
$Comp
L LED D11
U 1 1 4FD3A8E6
P 7650 900
F 0 "D11" H 7650 1000 50  0000 C CNN
F 1 "LED" H 7650 800 50  0000 C CNN
F 2 "" H 7650 900 60  0001 C CNN
F 3 "" H 7650 900 60  0001 C CNN
	1    7650 900 
	-1   0    0    1   
$EndComp
$Comp
L MOSFET_N Q3
U 1 1 4FD3A8E4
P 8150 1000
F 0 "Q3" H 8160 1170 60  0000 R CNN
F 1 "MOSFET_N" H 8160 850 60  0000 R CNN
F 2 "" H 8150 1000 60  0001 C CNN
F 3 "" H 8150 1000 60  0001 C CNN
	1    8150 1000
	1    0    0    -1  
$EndComp
$Comp
L +BATT #PWR013
U 1 1 4FD3A8E1
P 6800 750
F 0 "#PWR013" H 6800 700 20  0001 C CNN
F 1 "+BATT" H 6800 850 30  0000 C CNN
F 2 "" H 6800 750 60  0001 C CNN
F 3 "" H 6800 750 60  0001 C CNN
	1    6800 750 
	1    0    0    -1  
$EndComp
$Comp
L CONN_2 P2
U 1 1 4FD3A8E0
P 6850 1200
F 0 "P2" V 6800 1200 40  0000 C CNN
F 1 "CONN_2" V 6900 1200 40  0000 C CNN
F 2 "" H 6850 1200 60  0001 C CNN
F 3 "" H 6850 1200 60  0001 C CNN
	1    6850 1200
	1    0    0    -1  
$EndComp
$Comp
L GND #PWR014
U 1 1 4FD3A8DF
P 6000 1500
F 0 "#PWR014" H 6000 1500 30  0001 C CNN
F 1 "GND" H 6000 1430 30  0001 C CNN
F 2 "" H 6000 1500 60  0001 C CNN
F 3 "" H 6000 1500 60  0001 C CNN
	1    6000 1500
	1    0    0    -1  
$EndComp
$Comp
L DIODE D2
U 1 1 4FD3A8DE
P 6300 1200
F 0 "D2" H 6300 1300 40  0000 C CNN
F 1 "1N4001" H 6300 1100 40  0000 C CNN
F 2 "" H 6300 1200 60  0001 C CNN
F 3 "" H 6300 1200 60  0001 C CNN
	1    6300 1200
	0    -1   -1   0   
$EndComp
$Comp
L R R10
U 1 1 4FD3A8DD
P 5150 1200
F 0 "R10" V 5230 1200 50  0000 C CNN
F 1 "2.7k" V 5150 1200 50  0000 C CNN
F 2 "" H 5150 1200 60  0001 C CNN
F 3 "" H 5150 1200 60  0001 C CNN
	1    5150 1200
	1    0    0    -1  
$EndComp
$Comp
L LED D10
U 1 1 4FD3A8DC
P 5400 900
F 0 "D10" H 5400 1000 50  0000 C CNN
F 1 "LED" H 5400 800 50  0000 C CNN
F 2 "" H 5400 900 60  0001 C CNN
F 3 "" H 5400 900 60  0001 C CNN
	1    5400 900 
	-1   0    0    1   
$EndComp
$Comp
L +BATT #PWR015
U 1 1 4FD3A8D6
P 4600 700
F 0 "#PWR015" H 4600 650 20  0001 C CNN
F 1 "+BATT" H 4600 800 30  0000 C CNN
F 2 "" H 4600 700 60  0001 C CNN
F 3 "" H 4600 700 60  0001 C CNN
	1    4600 700 
	1    0    0    -1  
$EndComp
$Comp
L CONN_2 P1
U 1 1 4FD3A8D5
P 4650 1200
F 0 "P1" V 4600 1200 40  0000 C CNN
F 1 "CONN_2" V 4700 1200 40  0000 C CNN
F 2 "" H 4650 1200 60  0001 C CNN
F 3 "" H 4650 1200 60  0001 C CNN
	1    4650 1200
	1    0    0    -1  
$EndComp
$Comp
L GND #PWR016
U 1 1 4FD3A8D4
P 3800 1500
F 0 "#PWR016" H 3800 1500 30  0001 C CNN
F 1 "GND" H 3800 1430 30  0001 C CNN
F 2 "" H 3800 1500 60  0001 C CNN
F 3 "" H 3800 1500 60  0001 C CNN
	1    3800 1500
	1    0    0    -1  
$EndComp
$Comp
L DIODE D1
U 1 1 4FD3A8D3
P 4100 1200
F 0 "D1" H 4100 1300 40  0000 C CNN
F 1 "1N4001" H 4100 1100 40  0000 C CNN
F 2 "" H 4100 1200 60  0001 C CNN
F 3 "" H 4100 1200 60  0001 C CNN
	1    4100 1200
	0    -1   -1   0   
$EndComp
$Comp
L R R9
U 1 1 4FD3A8D2
P 2950 1200
F 0 "R9" V 3030 1200 50  0000 C CNN
F 1 "2.7k" V 2950 1200 50  0000 C CNN
F 2 "" H 2950 1200 60  0001 C CNN
F 3 "" H 2950 1200 60  0001 C CNN
	1    2950 1200
	1    0    0    -1  
$EndComp
$Comp
L LED D9
U 1 1 4FD3A8D1
P 3200 900
F 0 "D9" H 3200 1000 50  0000 C CNN
F 1 "LED" H 3200 800 50  0000 C CNN
F 2 "" H 3200 900 60  0001 C CNN
F 3 "" H 3200 900 60  0001 C CNN
	1    3200 900 
	-1   0    0    1   
$EndComp
$Comp
L +BATT #PWR017
U 1 1 4FD3A60C
P 9050 3950
F 0 "#PWR017" H 9050 3900 20  0001 C CNN
F 1 "+BATT" H 9050 4050 30  0000 C CNN
F 2 "" H 9050 3950 60  0001 C CNN
F 3 "" H 9050 3950 60  0001 C CNN
	1    9050 3950
	1    0    0    -1  
$EndComp
$Comp
L CONN_2 P6
U 1 1 4FD3A5D9
P 9100 4350
F 0 "P6" V 9050 4350 40  0000 C CNN
F 1 "CONN_2" V 9150 4350 40  0000 C CNN
F 2 "" H 9100 4350 60  0001 C CNN
F 3 "" H 9100 4350 60  0001 C CNN
	1    9100 4350
	1    0    0    -1  
$EndComp
$Comp
L GND #PWR018
U 1 1 4FD3A553
P 8250 4650
F 0 "#PWR018" H 8250 4650 30  0001 C CNN
F 1 "GND" H 8250 4580 30  0001 C CNN
F 2 "" H 8250 4650 60  0001 C CNN
F 3 "" H 8250 4650 60  0001 C CNN
	1    8250 4650
	1    0    0    -1  
$EndComp
$Comp
L DIODE D6
U 1 1 4FD3A4DA
P 8550 4350
F 0 "D6" H 8550 4450 40  0000 C CNN
F 1 "1N4001" H 8550 4250 40  0000 C CNN
F 2 "" H 8550 4350 60  0001 C CNN
F 3 "" H 8550 4350 60  0001 C CNN
	1    8550 4350
	0    -1   -1   0   
$EndComp
$Comp
L PWR_FLAG #FLG019
U 1 1 4FD2B34F
P 1550 4000
F 0 "#FLG019" H 1550 4270 30  0001 C CNN
F 1 "PWR_FLAG" H 1550 4230 30  0000 C CNN
F 2 "" H 1550 4000 60  0001 C CNN
F 3 "" H 1550 4000 60  0001 C CNN
	1    1550 4000
	1    0    0    -1  
$EndComp
$Comp
L GND #PWR020
U 1 1 4FD2B1CC
P 1600 2050
F 0 "#PWR020" H 1600 2050 30  0001 C CNN
F 1 "GND" H 1600 1980 30  0001 C CNN
F 2 "" H 1600 2050 60  0001 C CNN
F 3 "" H 1600 2050 60  0001 C CNN
	1    1600 2050
	-1   0    0    1   
$EndComp
$Comp
L VCC #PWR021
U 1 1 4FD2B1B6
P 1800 3100
F 0 "#PWR021" H 1800 3200 30  0001 C CNN
F 1 "VCC" H 1800 3200 30  0000 C CNN
F 2 "" H 1800 3100 60  0001 C CNN
F 3 "" H 1800 3100 60  0001 C CNN
	1    1800 3100
	0    1    1    0   
$EndComp
$Comp
L CONN_8 P9
U 1 1 4FD2AEA0
P 800 2850
F 0 "P9" V 750 2850 60  0000 C CNN
F 1 "IN" V 850 2850 60  0000 C CNN
F 2 "" H 800 2850 60  0001 C CNN
F 3 "" H 800 2850 60  0001 C CNN
	1    800  2850
	-1   0    0    1   
$EndComp
$Comp
L R R14
U 1 1 4FD2A78C
P 7400 4350
F 0 "R14" V 7480 4350 50  0000 C CNN
F 1 "2.7k" V 7400 4350 50  0000 C CNN
F 2 "" H 7400 4350 60  0001 C CNN
F 3 "" H 7400 4350 60  0001 C CNN
	1    7400 4350
	1    0    0    -1  
$EndComp
$Comp
L LED D14
U 1 1 4FD2A78B
P 7650 4050
F 0 "D14" H 7650 4150 50  0000 C CNN
F 1 "LED" H 7650 3950 50  0000 C CNN
F 2 "" H 7650 4050 60  0001 C CNN
F 3 "" H 7650 4050 60  0001 C CNN
	1    7650 4050
	-1   0    0    1   
$EndComp
$Comp
L MOSFET_N Q6
U 1 1 4FD2A789
P 8150 4150
F 0 "Q6" H 8160 4320 60  0000 R CNN
F 1 "MOSFET_N" H 8160 4000 60  0000 R CNN
F 2 "" H 8150 4150 60  0001 C CNN
F 3 "" H 8150 4150 60  0001 C CNN
	1    8150 4150
	1    0    0    -1  
$EndComp
$Comp
L PWR_FLAG #FLG022
U 1 1 4FD2A4A5
P 3850 4100
F 0 "#FLG022" H 3850 4370 30  0001 C CNN
F 1 "PWR_FLAG" H 3850 4330 30  0000 C CNN
F 2 "" H 3850 4100 60  0001 C CNN
F 3 "" H 3850 4100 60  0001 C CNN
	1    3850 4100
	1    0    0    -1  
$EndComp
$Comp
L PWR_FLAG #FLG023
U 1 1 4FD2A49C
P 2000 900
F 0 "#FLG023" H 2000 1170 30  0001 C CNN
F 1 "PWR_FLAG" H 2000 1130 30  0000 C CNN
F 2 "" H 2000 900 60  0001 C CNN
F 3 "" H 2000 900 60  0001 C CNN
	1    2000 900 
	1    0    0    -1  
$EndComp
$Comp
L GND #PWR024
U 1 1 4FD2A41C
P 4400 4500
F 0 "#PWR024" H 4400 4500 30  0001 C CNN
F 1 "GND" H 4400 4430 30  0001 C CNN
F 2 "" H 4400 4500 60  0001 C CNN
F 3 "" H 4400 4500 60  0001 C CNN
	1    4400 4500
	1    0    0    -1  
$EndComp
$Comp
L VCC #PWR025
U 1 1 4FD2A3F6
P 2250 1000
F 0 "#PWR025" H 2250 1100 30  0001 C CNN
F 1 "VCC" H 2250 1100 30  0000 C CNN
F 2 "" H 2250 1000 60  0001 C CNN
F 3 "" H 2250 1000 60  0001 C CNN
	1    2250 1000
	1    0    0    -1  
$EndComp
$Comp
L 74HC595 U1
U 1 1 4FD2A074
P 2700 3150
F 0 "U1" H 2850 3750 70  0000 C CNN
F 1 "74HC595" H 2700 2550 70  0000 C CNN
F 2 "" H 2700 3150 60  0001 C CNN
F 3 "" H 2700 3150 60  0001 C CNN
	1    2700 3150
	1    0    0    -1  
$EndComp
$Comp
L RR8 RR1
U 1 1 5353D107
P 4250 3050
F 0 "RR1" H 4300 3600 70  0000 C CNN
F 1 "10k" V 4280 3050 70  0000 C CNN
F 2 "" H 4250 3050 60  0000 C CNN
F 3 "" H 4250 3050 60  0000 C CNN
	1    4250 3050
	1    0    0    1   
$EndComp
Wire Wire Line
	1450 4200 1400 4200
Connection ~ 8550 6550
Connection ~ 8550 5450
Connection ~ 8550 4550
Connection ~ 8550 3500
Connection ~ 8550 2500
Connection ~ 8750 1300
Connection ~ 8550 1400
Connection ~ 6500 1300
Connection ~ 6300 1400
Wire Wire Line
	3950 1400 4300 1400
Wire Wire Line
	4300 1400 4300 1300
Connection ~ 7950 6050
Wire Wire Line
	7950 5750 7950 6150
Connection ~ 7950 4950
Wire Wire Line
	7950 4750 7950 5050
Connection ~ 7950 4050
Wire Wire Line
	7950 3750 7950 4150
Connection ~ 7950 3000
Wire Wire Line
	7950 2850 7950 3100
Connection ~ 7950 2000
Wire Wire Line
	7950 1750 7950 2100
Connection ~ 7950 900 
Wire Wire Line
	7950 700  7950 1000
Wire Wire Line
	5700 900  5600 900 
Wire Wire Line
	5700 900  5700 1000
Connection ~ 3500 900 
Wire Wire Line
	3500 600  3500 1000
Wire Wire Line
	7400 6100 7400 6050
Wire Wire Line
	7400 6050 7450 6050
Connection ~ 8250 6600
Wire Wire Line
	7400 6600 8250 6600
Wire Wire Line
	8250 6350 8250 6650
Wire Wire Line
	8400 6550 8750 6550
Wire Wire Line
	8750 6550 8750 6450
Wire Wire Line
	8400 6550 8400 5950
Wire Wire Line
	8400 5950 8250 5950
Wire Wire Line
	7850 6050 7950 6050
Wire Wire Line
	7400 5000 7400 4950
Wire Wire Line
	7400 4950 7450 4950
Connection ~ 8250 5500
Wire Wire Line
	7400 5500 8250 5500
Wire Wire Line
	8250 5250 8250 5550
Wire Wire Line
	8400 5450 8750 5450
Wire Wire Line
	8750 5450 8750 5350
Wire Wire Line
	8400 5450 8400 4850
Wire Wire Line
	8400 4850 8250 4850
Wire Wire Line
	8550 4900 8550 5050
Wire Wire Line
	8550 5050 8750 5050
Wire Wire Line
	8750 5050 8750 5150
Wire Wire Line
	7850 4950 7950 4950
Wire Wire Line
	7400 3050 7400 3000
Wire Wire Line
	7400 3000 7450 3000
Connection ~ 8250 3550
Wire Wire Line
	7400 3550 8250 3550
Wire Wire Line
	8250 3300 8250 3600
Wire Wire Line
	8400 3500 8750 3500
Wire Wire Line
	8750 3500 8750 3400
Wire Wire Line
	8400 3500 8400 2900
Wire Wire Line
	8400 2900 8250 2900
Wire Wire Line
	8550 3000 8550 3100
Wire Wire Line
	8550 3100 8750 3100
Wire Wire Line
	8750 3100 8750 3200
Wire Wire Line
	7850 3000 7950 3000
Wire Wire Line
	7400 2050 7400 2000
Wire Wire Line
	7400 2000 7450 2000
Connection ~ 8250 2550
Wire Wire Line
	7400 2550 8250 2550
Wire Wire Line
	8250 2300 8250 2600
Wire Wire Line
	8400 2500 8750 2500
Wire Wire Line
	8750 2500 8750 2400
Wire Wire Line
	8400 2500 8400 1900
Wire Wire Line
	8400 1900 8250 1900
Wire Wire Line
	8550 1950 8550 2100
Wire Wire Line
	8550 2100 8750 2100
Wire Wire Line
	8750 2100 8750 2200
Wire Wire Line
	7850 2000 7950 2000
Wire Wire Line
	7400 950  7400 900 
Wire Wire Line
	7400 900  7450 900 
Connection ~ 8250 1450
Wire Wire Line
	7400 1450 8250 1450
Wire Wire Line
	8250 1200 8250 1500
Wire Wire Line
	8400 1400 8750 1400
Wire Wire Line
	8750 1400 8750 1300
Wire Wire Line
	8400 1400 8400 800 
Wire Wire Line
	8400 800  8250 800 
Wire Wire Line
	8550 850  8550 1000
Wire Wire Line
	8550 1000 8750 1000
Wire Wire Line
	8750 1000 8750 1100
Wire Wire Line
	7850 900  7950 900 
Wire Wire Line
	5150 950  5150 900 
Wire Wire Line
	5150 900  5200 900 
Connection ~ 6000 1450
Wire Wire Line
	5150 1450 6000 1450
Wire Wire Line
	6000 1200 6000 1500
Wire Wire Line
	6150 1400 6500 1400
Wire Wire Line
	6500 1400 6500 1300
Wire Wire Line
	6150 1400 6150 800 
Wire Wire Line
	6150 800  6000 800 
Wire Wire Line
	6300 800  6300 1000
Wire Wire Line
	6300 1000 6500 1000
Wire Wire Line
	6500 1000 6500 1100
Wire Wire Line
	2950 950  2950 900 
Wire Wire Line
	2950 900  3000 900 
Connection ~ 3800 1450
Wire Wire Line
	2950 1450 3800 1450
Wire Wire Line
	3800 1200 3800 1500
Wire Wire Line
	4100 800  4100 1000
Wire Wire Line
	4100 1000 4300 1000
Wire Wire Line
	4300 1000 4300 1100
Wire Wire Line
	3400 900  3500 900 
Wire Wire Line
	7400 4100 7400 4050
Wire Wire Line
	7400 4050 7450 4050
Connection ~ 8250 4600
Wire Wire Line
	7400 4600 8250 4600
Wire Wire Line
	8250 4350 8250 4650
Wire Wire Line
	8400 4550 8750 4550
Wire Wire Line
	8750 4550 8750 4450
Wire Wire Line
	8400 4550 8400 3950
Wire Wire Line
	8400 3950 8250 3950
Wire Wire Line
	8550 4000 8550 4150
Wire Wire Line
	4400 4500 4400 4250
Wire Wire Line
	4400 4250 3850 4250
Wire Wire Line
	3850 4250 3850 4100
Wire Wire Line
	2250 1000 2000 1000
Wire Wire Line
	2000 1000 2000 900 
Wire Wire Line
	8550 4150 8750 4150
Wire Wire Line
	8750 4150 8750 4250
Wire Wire Line
	7850 4050 7950 4050
Wire Wire Line
	3500 600  2800 600 
Wire Wire Line
	2800 600  2800 2450
Wire Wire Line
	2800 2450 3500 2450
Wire Wire Line
	5600 900  5600 650 
Wire Wire Line
	5600 650  4900 650 
Wire Wire Line
	4900 650  4900 2800
Wire Wire Line
	7950 700  7000 700 
Wire Wire Line
	7000 700  7000 2900
Wire Wire Line
	7950 1750 7050 1750
Wire Wire Line
	7050 1750 7050 3000
Wire Wire Line
	7950 2850 7200 2850
Wire Wire Line
	7200 2850 7200 3100
Wire Wire Line
	7950 3750 7200 3750
Wire Wire Line
	7200 3750 7200 3200
Wire Wire Line
	7950 4750 7050 4750
Wire Wire Line
	7050 4750 7050 3300
Wire Wire Line
	7950 5750 6900 5750
Wire Wire Line
	6900 5750 6900 3400
Wire Wire Line
	3950 1400 3950 800 
Wire Wire Line
	3950 800  3800 800 
Connection ~ 4100 1400
Wire Wire Line
	8550 6000 8550 6150
Wire Wire Line
	8750 6250 8750 6150
Wire Wire Line
	8750 6150 8550 6150
Connection ~ 8550 6150
Connection ~ 3800 800 
Wire Wire Line
	850  3600 850  3700
Wire Wire Line
	850  3800 850  4000
Wire Wire Line
	850  4000 1550 4000
Wire Wire Line
	3400 2700 3900 2700
Wire Wire Line
	4900 2800 3400 2800
Wire Wire Line
	7000 2900 3400 2900
Wire Wire Line
	7050 3000 3400 3000
Wire Wire Line
	7200 3100 3400 3100
Wire Wire Line
	7200 3200 3400 3200
Wire Wire Line
	7050 3300 3400 3300
Wire Wire Line
	6900 3400 3400 3400
$Comp
L GND #PWR026
U 1 1 5353DB69
P 3900 3600
F 0 "#PWR026" H 3900 3600 30  0001 C CNN
F 1 "GND" H 3900 3530 30  0001 C CNN
F 2 "" H 3900 3600 60  0001 C CNN
F 3 "" H 3900 3600 60  0001 C CNN
	1    3900 3600
	1    0    0    -1  
$EndComp
Wire Wire Line
	3900 3500 3900 3600
Wire Wire Line
	3500 2450 3500 2700
Connection ~ 3500 2700
Connection ~ 3900 2800
Connection ~ 3900 2900
Connection ~ 3900 3000
Connection ~ 3900 3100
Connection ~ 3900 3200
Connection ~ 3900 3300
Connection ~ 3900 3400
$Comp
L FUSE F1
U 1 1 5353DD76
P 4350 800
F 0 "F1" H 4450 850 40  0000 C CNN
F 1 "FUSE" H 4250 750 40  0000 C CNN
F 2 "" H 4350 800 60  0000 C CNN
F 3 "" H 4350 800 60  0000 C CNN
	1    4350 800 
	1    0    0    -1  
$EndComp
Wire Wire Line
	4600 700  4600 800 
$Comp
L FUSE F2
U 1 1 5353DF58
P 6550 800
F 0 "F2" H 6650 850 40  0000 C CNN
F 1 "FUSE" H 6450 750 40  0000 C CNN
F 2 "" H 6550 800 60  0000 C CNN
F 3 "" H 6550 800 60  0000 C CNN
	1    6550 800 
	1    0    0    -1  
$EndComp
Wire Wire Line
	6800 750  6800 800 
$Comp
L FUSE F3
U 1 1 5353E126
P 8800 850
F 0 "F3" H 8900 900 40  0000 C CNN
F 1 "FUSE" H 8700 800 40  0000 C CNN
F 2 "" H 8800 850 60  0000 C CNN
F 3 "" H 8800 850 60  0000 C CNN
	1    8800 850 
	1    0    0    -1  
$EndComp
Wire Wire Line
	9050 800  9050 850 
$Comp
L FUSE F4
U 1 1 5353E300
P 8800 1950
F 0 "F4" H 8900 2000 40  0000 C CNN
F 1 "FUSE" H 8700 1900 40  0000 C CNN
F 2 "" H 8800 1950 60  0000 C CNN
F 3 "" H 8800 1950 60  0000 C CNN
	1    8800 1950
	1    0    0    -1  
$EndComp
Wire Wire Line
	9050 1900 9050 1950
$Comp
L FUSE F5
U 1 1 5353E4E3
P 8800 3000
F 0 "F5" H 8900 3050 40  0000 C CNN
F 1 "FUSE" H 8700 2950 40  0000 C CNN
F 2 "" H 8800 3000 60  0000 C CNN
F 3 "" H 8800 3000 60  0000 C CNN
	1    8800 3000
	1    0    0    -1  
$EndComp
Wire Wire Line
	9050 2900 9050 3000
$Comp
L FUSE F6
U 1 1 5353E6AD
P 8800 4000
F 0 "F6" H 8900 4050 40  0000 C CNN
F 1 "FUSE" H 8700 3950 40  0000 C CNN
F 2 "" H 8800 4000 60  0000 C CNN
F 3 "" H 8800 4000 60  0000 C CNN
	1    8800 4000
	1    0    0    -1  
$EndComp
Wire Wire Line
	9050 3950 9050 4000
$Comp
L FUSE F7
U 1 1 5353E883
P 8800 4900
F 0 "F7" H 8900 4950 40  0000 C CNN
F 1 "FUSE" H 8700 4850 40  0000 C CNN
F 2 "" H 8800 4900 60  0000 C CNN
F 3 "" H 8800 4900 60  0000 C CNN
	1    8800 4900
	1    0    0    -1  
$EndComp
Wire Wire Line
	9050 4850 9050 4900
$Comp
L FUSE F8
U 1 1 5353EA5B
P 8800 6000
F 0 "F8" H 8900 6050 40  0000 C CNN
F 1 "FUSE" H 8700 5950 40  0000 C CNN
F 2 "" H 8800 6000 60  0000 C CNN
F 3 "" H 8800 6000 60  0000 C CNN
	1    8800 6000
	1    0    0    -1  
$EndComp
Wire Wire Line
	9050 6000 9050 5950
Wire Wire Line
	1400 4200 1400 4000
Connection ~ 1400 4000
$Comp
L CONN_8 P10
U 1 1 5353F43B
P 800 2000
F 0 "P10" V 750 2000 60  0000 C CNN
F 1 "OUT" V 850 2000 60  0000 C CNN
F 2 "" H 800 2000 60  0001 C CNN
F 3 "" H 800 2000 60  0001 C CNN
	1    800  2000
	-1   0    0    1   
$EndComp
Wire Wire Line
	1150 2600 1900 2600
Wire Wire Line
	1150 1750 1300 1750
Wire Wire Line
	1300 1750 1300 2600
Connection ~ 1300 2600
Wire Wire Line
	3400 3600 3400 3750
Wire Wire Line
	3400 3750 1350 3750
Wire Wire Line
	1150 1850 1550 1850
Wire Wire Line
	1150 1950 1400 1950
Wire Wire Line
	1150 2800 1400 2800
Connection ~ 1400 2800
Wire Wire Line
	1150 2900 1450 2900
Wire Wire Line
	1450 2050 1150 2050
Connection ~ 1450 2900
Wire Wire Line
	1150 3200 1250 3200
Wire Wire Line
	1150 2350 1250 2350
Wire Wire Line
	1600 3000 1150 3000
Wire Wire Line
	1600 2050 1600 3000
Wire Wire Line
	1600 2150 1150 2150
Wire Wire Line
	1150 2250 1700 2250
Wire Wire Line
	1700 2250 1700 3100
Wire Wire Line
	1150 3100 1800 3100
Wire Wire Line
	1150 2500 2000 2500
Connection ~ 1700 3100
Connection ~ 1600 2150
Wire Wire Line
	1450 2050 1450 3300
Wire Wire Line
	1450 3300 2000 3300
Wire Wire Line
	1400 1950 1400 3200
Wire Wire Line
	1550 2900 2000 2900
Wire Wire Line
	1550 1850 1550 2900
Wire Wire Line
	1550 2700 1150 2700
Connection ~ 1550 2700
Wire Wire Line
	2000 2500 2000 2700
Wire Wire Line
	1150 1650 1350 1650
Wire Wire Line
	1350 1650 1350 3750
Wire Wire Line
	1900 2600 1900 3000
Wire Wire Line
	1900 3000 2000 3000
Wire Wire Line
	1250 2350 1250 3200
$Comp
L GND #PWR027
U 1 1 5363D85C
P 1250 1300
F 0 "#PWR027" H 1250 1300 30  0001 C CNN
F 1 "GND" H 1250 1230 30  0001 C CNN
F 2 "" H 1250 1300 60  0000 C CNN
F 3 "" H 1250 1300 60  0000 C CNN
	1    1250 1300
	1    0    0    -1  
$EndComp
$Comp
L VCC #PWR028
U 1 1 5363D870
P 1250 800
F 0 "#PWR028" H 1250 900 30  0001 C CNN
F 1 "VCC" H 1250 900 30  0000 C CNN
F 2 "" H 1250 800 60  0000 C CNN
F 3 "" H 1250 800 60  0000 C CNN
	1    1250 800 
	1    0    0    -1  
$EndComp
$Comp
L C C1
U 1 1 5363D884
P 1250 1050
F 0 "C1" H 1250 1150 40  0000 L CNN
F 1 "C" H 1256 965 40  0000 L CNN
F 2 "" H 1288 900 30  0000 C CNN
F 3 "" H 1250 1050 60  0000 C CNN
	1    1250 1050
	1    0    0    -1  
$EndComp
Wire Wire Line
	1250 800  1250 850 
Wire Wire Line
	1250 1250 1250 1300
$Comp
L CONN_1 P11
U 1 1 537206F8
P 3400 5600
F 0 "P11" H 3480 5600 40  0000 L CNN
F 1 "CONN_1" H 3400 5655 30  0001 C CNN
F 2 "" H 3400 5600 60  0000 C CNN
F 3 "" H 3400 5600 60  0000 C CNN
	1    3400 5600
	1    0    0    -1  
$EndComp
$Comp
L CONN_1 P12
U 1 1 5372070A
P 3400 5700
F 0 "P12" H 3480 5700 40  0000 L CNN
F 1 "CONN_1" H 3400 5755 30  0001 C CNN
F 2 "" H 3400 5700 60  0000 C CNN
F 3 "" H 3400 5700 60  0000 C CNN
	1    3400 5700
	1    0    0    -1  
$EndComp
$Comp
L CONN_1 P13
U 1 1 53720715
P 3400 5800
F 0 "P13" H 3480 5800 40  0000 L CNN
F 1 "CONN_1" H 3400 5855 30  0001 C CNN
F 2 "" H 3400 5800 60  0000 C CNN
F 3 "" H 3400 5800 60  0000 C CNN
	1    3400 5800
	1    0    0    -1  
$EndComp
$Comp
L CONN_1 P14
U 1 1 53720720
P 3400 5900
F 0 "P14" H 3480 5900 40  0000 L CNN
F 1 "CONN_1" H 3400 5955 30  0001 C CNN
F 2 "" H 3400 5900 60  0000 C CNN
F 3 "" H 3400 5900 60  0000 C CNN
	1    3400 5900
	1    0    0    -1  
$EndComp
NoConn ~ 3250 5600
NoConn ~ 3250 5700
NoConn ~ 3250 5800
NoConn ~ 3250 5900
$Comp
L R R1
U 1 1 53720A9D
P 1650 3200
F 0 "R1" V 1730 3200 40  0000 C CNN
F 1 "1k" V 1657 3201 40  0000 C CNN
F 2 "" V 1580 3200 30  0000 C CNN
F 3 "" H 1650 3200 30  0000 C CNN
	1    1650 3200
	0    1    1    0   
$EndComp
$Comp
L C C2
U 1 1 53720AB1
P 1950 3450
F 0 "C2" H 1950 3550 40  0000 L CNN
F 1 "10n" H 1956 3365 40  0000 L CNN
F 2 "" H 1988 3300 30  0000 C CNN
F 3 "" H 1950 3450 60  0000 C CNN
	1    1950 3450
	1    0    0    -1  
$EndComp
$Comp
L GND #PWR029
U 1 1 53720AC3
P 1950 3850
F 0 "#PWR029" H 1950 3850 30  0001 C CNN
F 1 "GND" H 1950 3780 30  0001 C CNN
F 2 "" H 1950 3850 60  0001 C CNN
F 3 "" H 1950 3850 60  0001 C CNN
	1    1950 3850
	1    0    0    -1  
$EndComp
Wire Wire Line
	1950 3650 1950 3850
Wire Wire Line
	1900 3200 2000 3200
Wire Wire Line
	1950 3250 1950 3200
Connection ~ 1950 3200
$EndSCHEMATC
