%!PS-Adobe-3.0
%%Creator: PCBNEW
%%CreationDate: Fri May 23 20:33:09 2014
%%Title: /home/pila/KicadProjects/BasicOutputBoard/BasicOutputBoard-B_Cu.ps
%%Pages: 1
%%PageOrder: Ascend
%%BoundingBox: 0 0 596 842
%%DocumentMedia: A4 595 842 0 () ()
%%Orientation: Landscape
%%EndComments
%%BeginProlog
/line { newpath moveto lineto stroke } bind def
/cir0 { newpath 0 360 arc stroke } bind def
/cir1 { newpath 0 360 arc gsave fill grestore stroke } bind def
/cir2 { newpath 0 360 arc gsave fill grestore stroke } bind def
/arc0 { newpath arc stroke } bind def
/arc1 { newpath 4 index 4 index moveto arc closepath gsave fill
    grestore stroke } bind def
/arc2 { newpath 4 index 4 index moveto arc closepath gsave fill
    grestore stroke } bind def
/poly0 { stroke } bind def
/poly1 { closepath gsave fill grestore stroke } bind def
/poly2 { closepath gsave fill grestore stroke } bind def
/rect0 { rectstroke } bind def
/rect1 { rectfill } bind def
/rect2 { rectfill } bind def
/linemode0 { 0 setlinecap 0 setlinejoin 0 setlinewidth } bind def
/linemode1 { 1 setlinecap 1 setlinejoin } bind def
/dashedline { [200] 100 setdash } bind def
/solidline { [] 0 setdash } bind def
/phantomshow { moveto
    /KicadFont findfont 0.000001 scalefont setfont
    show } bind def
/textshow { gsave
    findfont exch scalefont setfont concat 1 scale 0 0 moveto show
    } bind def
/reencodefont {
  findfont dup length dict begin
  { 1 index /FID ne
    { def }
    { pop pop } ifelse
  } forall
  /Encoding ISOLatin1Encoding def
  currentdict
  end } bind def
/KicadFont /Helvetica reencodefont definefont pop
/KicadFont-Bold /Helvetica-Bold reencodefont definefont pop
/KicadFont-Oblique /Helvetica-Oblique reencodefont definefont pop
/KicadFont-BoldOblique /Helvetica-BoldOblique reencodefont definefont pop
%%EndProlog
%%Page: 1 1
%%BeginPageSetup
gsave
0.0072 0.0072 scale
linemode1
82680 0 translate 90 rotate
59.0551 setlinewidth
%%EndPageSetup
0 0 0 setrgbcolor
0 0 0 setrgbcolor
39.3701 setlinewidth
newpath
33250 21180 moveto
33250 50430 lineto
stroke
0 0 0 setrgbcolor
newpath
63750 21180 moveto
33250 21180 lineto
stroke
0 0 0 setrgbcolor
newpath
63750 50430 moveto
63750 21180 lineto
stroke
0 0 0 setrgbcolor
newpath
33250 50430 moveto
63750 50430 lineto
stroke
0 0 0 setrgbcolor
118.11 setlinewidth
newpath
54012.9 36223.6 moveto
54041.1 36139.2 lineto
54069.2 36111.1 lineto
54125.4 36083 lineto
54209.8 36083 lineto
54266 36111.1 lineto
54294.2 36139.2 lineto
54322.3 36195.5 lineto
54322.3 36420.4 lineto
53731.7 36420.4 lineto
53731.7 36223.6 lineto
53759.8 36167.3 lineto
53788 36139.2 lineto
53844.2 36111.1 lineto
53900.4 36111.1 lineto
53956.7 36139.2 lineto
53984.8 36167.3 lineto
54012.9 36223.6 lineto
54012.9 36420.4 lineto
stroke
newpath
53731.7 35717.4 moveto
53731.7 35604.9 lineto
53759.8 35548.7 lineto
53816.1 35492.4 lineto
53928.6 35464.3 lineto
54125.4 35464.3 lineto
54237.9 35492.4 lineto
54294.2 35548.7 lineto
54322.3 35604.9 lineto
54322.3 35717.4 lineto
54294.2 35773.6 lineto
54237.9 35829.9 lineto
54125.4 35858 lineto
53928.6 35858 lineto
53816.1 35829.9 lineto
53759.8 35773.6 lineto
53731.7 35717.4 lineto
stroke
newpath
54012.9 35014.4 moveto
54041.1 34930 lineto
54069.2 34901.9 lineto
54125.4 34873.8 lineto
54209.8 34873.8 lineto
54266 34901.9 lineto
54294.2 34930 lineto
54322.3 34986.2 lineto
54322.3 35211.2 lineto
53731.7 35211.2 lineto
53731.7 35014.4 lineto
53759.8 34958.1 lineto
53788 34930 lineto
53844.2 34901.9 lineto
53900.4 34901.9 lineto
53956.7 34930 lineto
53984.8 34958.1 lineto
54012.9 35014.4 lineto
54012.9 35211.2 lineto
stroke
newpath
53928.6 34227 moveto
54322.3 34086.4 lineto
53928.6 33945.7 lineto
stroke
newpath
53788 33748.9 moveto
53759.8 33720.8 lineto
53731.7 33664.5 lineto
53731.7 33523.9 lineto
53759.8 33467.7 lineto
53788 33439.6 lineto
53844.2 33411.4 lineto
53900.4 33411.4 lineto
53984.8 33439.6 lineto
54322.3 33777 lineto
54322.3 33411.4 lineto
stroke
newpath
54732.8 37025.1 moveto
54704.7 36996.9 lineto
54676.6 36940.7 lineto
54676.6 36800.1 lineto
54704.7 36743.8 lineto
54732.8 36715.7 lineto
54789.1 36687.6 lineto
54845.3 36687.6 lineto
54929.7 36715.7 lineto
55267.2 37053.2 lineto
55267.2 36687.6 lineto
stroke
newpath
54676.6 36322 moveto
54676.6 36265.8 lineto
54704.7 36209.5 lineto
54732.8 36181.4 lineto
54789.1 36153.3 lineto
54901.6 36125.2 lineto
55042.2 36125.2 lineto
55154.7 36153.3 lineto
55210.9 36181.4 lineto
55239 36209.5 lineto
55267.2 36265.8 lineto
55267.2 36322 lineto
55239 36378.3 lineto
55210.9 36406.4 lineto
55154.7 36434.5 lineto
55042.2 36462.6 lineto
54901.6 36462.6 lineto
54789.1 36434.5 lineto
54732.8 36406.4 lineto
54704.7 36378.3 lineto
54676.6 36322 lineto
stroke
newpath
55267.2 35562.7 moveto
55267.2 35900.2 lineto
stroke
newpath
55267.2 35731.5 moveto
54676.6 35731.5 lineto
54761 35787.7 lineto
54817.2 35843.9 lineto
54845.3 35900.2 lineto
stroke
newpath
54873.5 35056.5 moveto
55267.2 35056.5 lineto
stroke
newpath
54648.5 35197.2 moveto
55070.3 35337.8 lineto
55070.3 34972.2 lineto
stroke
newpath
55267.2 34297.3 moveto
54676.6 34297.3 lineto
54676.6 34072.3 lineto
54704.7 34016.1 lineto
54732.8 33987.9 lineto
54789.1 33959.8 lineto
54873.5 33959.8 lineto
54929.7 33987.9 lineto
54957.8 34016.1 lineto
54985.9 34072.3 lineto
54985.9 34297.3 lineto
stroke
newpath
55267.2 33706.7 moveto
54873.5 33706.7 lineto
stroke
newpath
54676.6 33706.7 moveto
54704.7 33734.8 lineto
54732.8 33706.7 lineto
54704.7 33678.6 lineto
54676.6 33706.7 lineto
54732.8 33706.7 lineto
stroke
newpath
55267.2 33341.1 moveto
55239 33397.4 lineto
55182.8 33425.5 lineto
54676.6 33425.5 lineto
stroke
newpath
55267.2 32863.1 moveto
54957.8 32863.1 lineto
54901.6 32891.2 lineto
54873.5 32947.4 lineto
54873.5 33059.9 lineto
54901.6 33116.2 lineto
stroke
newpath
55239 32863.1 moveto
55267.2 32919.3 lineto
55267.2 33059.9 lineto
55239 33116.2 lineto
55182.8 33144.3 lineto
55126.5 33144.3 lineto
55070.3 33116.2 lineto
55042.2 33059.9 lineto
55042.2 32919.3 lineto
55014.1 32863.1 lineto
stroke
newpath
56155.8 36153.3 moveto
56183.9 36181.4 lineto
56212 36265.8 lineto
56212 36322 lineto
56183.9 36406.4 lineto
56127.7 36462.6 lineto
56071.4 36490.7 lineto
55958.9 36518.9 lineto
55874.6 36518.9 lineto
55762.1 36490.7 lineto
55705.8 36462.6 lineto
55649.6 36406.4 lineto
55621.5 36322 lineto
55621.5 36265.8 lineto
55649.6 36181.4 lineto
55677.7 36153.3 lineto
stroke
newpath
55621.5 35787.7 moveto
55621.5 35675.2 lineto
55649.6 35619 lineto
55705.8 35562.7 lineto
55818.3 35534.6 lineto
56015.2 35534.6 lineto
56127.7 35562.7 lineto
56183.9 35619 lineto
56212 35675.2 lineto
56212 35787.7 lineto
56183.9 35843.9 lineto
56127.7 35900.2 lineto
56015.2 35928.3 lineto
55818.3 35928.3 lineto
55705.8 35900.2 lineto
55649.6 35843.9 lineto
55621.5 35787.7 lineto
stroke
newpath
56043.3 35309.6 moveto
56043.3 35028.4 lineto
stroke
newpath
56212 35365.9 moveto
55621.5 35169 lineto
56212 34972.2 lineto
stroke
newpath
55649.6 34466 moveto
55621.5 34522.2 lineto
55621.5 34606.6 lineto
55649.6 34691 lineto
55705.8 34747.2 lineto
55762.1 34775.3 lineto
55874.6 34803.5 lineto
55958.9 34803.5 lineto
56071.4 34775.3 lineto
56127.7 34747.2 lineto
56183.9 34691 lineto
56212 34606.6 lineto
56212 34550.4 lineto
56183.9 34466 lineto
56155.8 34437.9 lineto
55958.9 34437.9 lineto
55958.9 34550.4 lineto
stroke
newpath
55621.5 34184.8 moveto
56099.5 34184.8 lineto
56155.8 34156.7 lineto
56183.9 34128.5 lineto
56212 34072.3 lineto
56212 33959.8 lineto
56183.9 33903.6 lineto
56155.8 33875.4 lineto
56099.5 33847.3 lineto
55621.5 33847.3 lineto
stroke
newpath
56212 33284.9 moveto
56212 33566.1 lineto
55621.5 33566.1 lineto
stroke
0 0 0 setrgbcolor
59.0551 setlinewidth
39250 27680 245.472 cir1
0 0 0 setrgbcolor
39250 26680 245.472 cir1
0 0 0 setrgbcolor
45000 27680 245.472 cir1
0 0 0 setrgbcolor
45000 26680 245.472 cir1
0 0 0 setrgbcolor
50750 27680 245.472 cir1
0 0 0 setrgbcolor
50750 26680 245.472 cir1
0 0 0 setrgbcolor
56500 27680 245.472 cir1
0 0 0 setrgbcolor
56500 26680 245.472 cir1
0 0 0 setrgbcolor
57000 43930 245.472 cir1
0 0 0 setrgbcolor
57000 44930 245.472 cir1
0 0 0 setrgbcolor
51250 43930 245.472 cir1
0 0 0 setrgbcolor
51250 44930 245.472 cir1
0 0 0 setrgbcolor
45500 43930 245.472 cir1
0 0 0 setrgbcolor
45500 44930 245.472 cir1
0 0 0 setrgbcolor
39750 43930 245.472 cir1
0 0 0 setrgbcolor
39750 44930 245.472 cir1
0 0 0 setrgbcolor
newpath
40970.5 24900.5 moveto
40970.5 23959.5 lineto
40029.5 23959.5 lineto
40029.5 24900.5 lineto
40970.5 24900.5 lineto
poly1
0 0 0 setrgbcolor
38500 24430 470.472 cir1
0 0 0 setrgbcolor
newpath
46720.5 24900.5 moveto
46720.5 23959.5 lineto
45779.5 23959.5 lineto
45779.5 24900.5 lineto
46720.5 24900.5 lineto
poly1
0 0 0 setrgbcolor
44250 24430 470.472 cir1
0 0 0 setrgbcolor
newpath
52470.5 24900.5 moveto
52470.5 23959.5 lineto
51529.5 23959.5 lineto
51529.5 24900.5 lineto
52470.5 24900.5 lineto
poly1
0 0 0 setrgbcolor
50000 24430 470.472 cir1
0 0 0 setrgbcolor
newpath
58220.5 24900.5 moveto
58220.5 23959.5 lineto
57279.5 23959.5 lineto
57279.5 24900.5 lineto
58220.5 24900.5 lineto
poly1
0 0 0 setrgbcolor
55750 24430 470.472 cir1
0 0 0 setrgbcolor
newpath
55279.5 46709.5 moveto
55279.5 47650.5 lineto
56220.5 47650.5 lineto
56220.5 46709.5 lineto
55279.5 46709.5 lineto
poly1
0 0 0 setrgbcolor
57750 47180 470.472 cir1
0 0 0 setrgbcolor
newpath
49529.5 46709.5 moveto
49529.5 47650.5 lineto
50470.5 47650.5 lineto
50470.5 46709.5 lineto
49529.5 46709.5 lineto
poly1
0 0 0 setrgbcolor
52000 47180 470.472 cir1
0 0 0 setrgbcolor
newpath
43779.5 46709.5 moveto
43779.5 47650.5 lineto
44720.5 47650.5 lineto
44720.5 46709.5 lineto
43779.5 46709.5 lineto
poly1
0 0 0 setrgbcolor
46250 47180 470.472 cir1
0 0 0 setrgbcolor
newpath
38029.5 46709.5 moveto
38029.5 47650.5 lineto
38970.5 47650.5 lineto
38970.5 46709.5 lineto
38029.5 46709.5 lineto
poly1
0 0 0 setrgbcolor
40500 47180 470.472 cir1
0 0 0 setrgbcolor
newpath
35246.1 32183.9 moveto
34753.9 32183.9 lineto
34753.9 32676.1 lineto
35246.1 32676.1 lineto
35246.1 32183.9 lineto
poly1
0 0 0 setrgbcolor
newpath
35246.1 33183.9 moveto
34753.9 33183.9 lineto
34753.9 33676.1 lineto
35246.1 33676.1 lineto
35246.1 33183.9 lineto
poly1
0 0 0 setrgbcolor
newpath
35246.1 34183.9 moveto
34753.9 34183.9 lineto
34753.9 34676.1 lineto
35246.1 34676.1 lineto
35246.1 34183.9 lineto
poly1
0 0 0 setrgbcolor
newpath
35246.1 35183.9 moveto
34753.9 35183.9 lineto
34753.9 35676.1 lineto
35246.1 35676.1 lineto
35246.1 35183.9 lineto
poly1
0 0 0 setrgbcolor
newpath
35246.1 36183.9 moveto
34753.9 36183.9 lineto
34753.9 36676.1 lineto
35246.1 36676.1 lineto
35246.1 36183.9 lineto
poly1
0 0 0 setrgbcolor
newpath
35246.1 37183.9 moveto
34753.9 37183.9 lineto
34753.9 37676.1 lineto
35246.1 37676.1 lineto
35246.1 37183.9 lineto
poly1
0 0 0 setrgbcolor
newpath
35246.1 38183.9 moveto
34753.9 38183.9 lineto
34753.9 38676.1 lineto
35246.1 38676.1 lineto
35246.1 38183.9 lineto
poly1
0 0 0 setrgbcolor
newpath
35246.1 39183.9 moveto
34753.9 39183.9 lineto
34753.9 39676.1 lineto
35246.1 39676.1 lineto
35246.1 39183.9 lineto
poly1
0 0 0 setrgbcolor
newpath
61470.5 33709.5 moveto
60529.5 33709.5 lineto
60529.5 34650.5 lineto
61470.5 34650.5 lineto
61470.5 33709.5 lineto
poly1
0 0 0 setrgbcolor
61000 36180 470.472 cir1
0 0 0 setrgbcolor
591 setlinewidth
newpath
39500 28983.5 moveto
39500 29376.5 lineto
stroke
0 0 0 setrgbcolor
newpath
38500 28983.5 moveto
38500 29376.5 lineto
stroke
0 0 0 setrgbcolor
newpath
40500 28983.5 moveto
40500 29376.5 lineto
stroke
0 0 0 setrgbcolor
newpath
45250 28983.5 moveto
45250 29376.5 lineto
stroke
0 0 0 setrgbcolor
newpath
44250 28983.5 moveto
44250 29376.5 lineto
stroke
0 0 0 setrgbcolor
newpath
46250 28983.5 moveto
46250 29376.5 lineto
stroke
0 0 0 setrgbcolor
newpath
51000 28983.5 moveto
51000 29376.5 lineto
stroke
0 0 0 setrgbcolor
newpath
50000 28983.5 moveto
50000 29376.5 lineto
stroke
0 0 0 setrgbcolor
newpath
52000 28983.5 moveto
52000 29376.5 lineto
stroke
0 0 0 setrgbcolor
newpath
56750 28983.5 moveto
56750 29376.5 lineto
stroke
0 0 0 setrgbcolor
newpath
55750 28983.5 moveto
55750 29376.5 lineto
stroke
0 0 0 setrgbcolor
newpath
57750 28983.5 moveto
57750 29376.5 lineto
stroke
0 0 0 setrgbcolor
newpath
56750 42626.5 moveto
56750 42233.5 lineto
stroke
0 0 0 setrgbcolor
newpath
57750 42626.5 moveto
57750 42233.5 lineto
stroke
0 0 0 setrgbcolor
newpath
55750 42626.5 moveto
55750 42233.5 lineto
stroke
0 0 0 setrgbcolor
newpath
51000 42626.5 moveto
51000 42233.5 lineto
stroke
0 0 0 setrgbcolor
newpath
52000 42626.5 moveto
52000 42233.5 lineto
stroke
0 0 0 setrgbcolor
newpath
50000 42626.5 moveto
50000 42233.5 lineto
stroke
0 0 0 setrgbcolor
newpath
45250 42626.5 moveto
45250 42233.5 lineto
stroke
0 0 0 setrgbcolor
newpath
46250 42626.5 moveto
46250 42233.5 lineto
stroke
0 0 0 setrgbcolor
newpath
44250 42626.5 moveto
44250 42233.5 lineto
stroke
0 0 0 setrgbcolor
newpath
39500 42626.5 moveto
39500 42233.5 lineto
stroke
0 0 0 setrgbcolor
newpath
40500 42626.5 moveto
40500 42233.5 lineto
stroke
0 0 0 setrgbcolor
newpath
38500 42626.5 moveto
38500 42233.5 lineto
stroke
0 0 0 setrgbcolor
59.0551 setlinewidth
newpath
45170.5 32149.5 moveto
44329.5 32149.5 lineto
44329.5 32710.5 lineto
45170.5 32710.5 lineto
45170.5 32149.5 lineto
poly1
0 0 0 setrgbcolor
620 setlinewidth
newpath
44610 33430 moveto
44890 33430 lineto
stroke
0 0 0 setrgbcolor
newpath
44610 34430 moveto
44890 34430 lineto
stroke
0 0 0 setrgbcolor
newpath
44610 35430 moveto
44890 35430 lineto
stroke
0 0 0 setrgbcolor
newpath
44610 36430 moveto
44890 36430 lineto
stroke
0 0 0 setrgbcolor
newpath
44610 37430 moveto
44890 37430 lineto
stroke
0 0 0 setrgbcolor
newpath
44610 38430 moveto
44890 38430 lineto
stroke
0 0 0 setrgbcolor
newpath
44610 39430 moveto
44890 39430 lineto
stroke
0 0 0 setrgbcolor
newpath
41610 39430 moveto
41890 39430 lineto
stroke
0 0 0 setrgbcolor
newpath
41610 38430 moveto
41890 38430 lineto
stroke
0 0 0 setrgbcolor
newpath
41610 37430 moveto
41890 37430 lineto
stroke
0 0 0 setrgbcolor
newpath
41610 36430 moveto
41890 36430 lineto
stroke
0 0 0 setrgbcolor
newpath
41610 35430 moveto
41890 35430 lineto
stroke
0 0 0 setrgbcolor
newpath
41610 34430 moveto
41890 34430 lineto
stroke
0 0 0 setrgbcolor
newpath
41610 33430 moveto
41890 33430 lineto
stroke
0 0 0 setrgbcolor
newpath
41610 32430 moveto
41890 32430 lineto
stroke
0 0 0 setrgbcolor
59.0551 setlinewidth
newpath
46504.5 39675.5 moveto
46995.5 39675.5 lineto
46995.5 39184.5 lineto
46504.5 39184.5 lineto
46504.5 39675.5 lineto
poly1
0 0 0 setrgbcolor
46750 38430 245.472 cir1
0 0 0 setrgbcolor
46750 37430 245.472 cir1
0 0 0 setrgbcolor
46750 36430 245.472 cir1
0 0 0 setrgbcolor
46750 35430 245.472 cir1
0 0 0 setrgbcolor
46750 34430 245.472 cir1
0 0 0 setrgbcolor
46750 33430 245.472 cir1
0 0 0 setrgbcolor
46750 32430 245.472 cir1
0 0 0 setrgbcolor
46750 31430 245.472 cir1
0 0 0 setrgbcolor
37500 27680 245.472 cir1
0 0 0 setrgbcolor
37500 26680 245.472 cir1
0 0 0 setrgbcolor
43250 27680 245.472 cir1
0 0 0 setrgbcolor
43250 26680 245.472 cir1
0 0 0 setrgbcolor
49000 27680 245.472 cir1
0 0 0 setrgbcolor
49000 26680 245.472 cir1
0 0 0 setrgbcolor
54750 27680 245.472 cir1
0 0 0 setrgbcolor
54750 26680 245.472 cir1
0 0 0 setrgbcolor
58750 43930 245.472 cir1
0 0 0 setrgbcolor
58750 44930 245.472 cir1
0 0 0 setrgbcolor
53000 43930 245.472 cir1
0 0 0 setrgbcolor
53000 44930 245.472 cir1
0 0 0 setrgbcolor
47250 43930 245.472 cir1
0 0 0 setrgbcolor
47250 44930 245.472 cir1
0 0 0 setrgbcolor
41500 43930 245.472 cir1
0 0 0 setrgbcolor
41500 44930 245.472 cir1
0 0 0 setrgbcolor
41000 27680 245.472 cir1
0 0 0 setrgbcolor
41000 26680 245.472 cir1
0 0 0 setrgbcolor
46750 27680 245.472 cir1
0 0 0 setrgbcolor
46750 26680 245.472 cir1
0 0 0 setrgbcolor
52500 27680 245.472 cir1
0 0 0 setrgbcolor
52500 26680 245.472 cir1
0 0 0 setrgbcolor
58250 27680 245.472 cir1
0 0 0 setrgbcolor
58250 26680 245.472 cir1
0 0 0 setrgbcolor
55250 43930 245.472 cir1
0 0 0 setrgbcolor
55250 44930 245.472 cir1
0 0 0 setrgbcolor
49500 43930 245.472 cir1
0 0 0 setrgbcolor
49500 44930 245.472 cir1
0 0 0 setrgbcolor
43750 43930 245.472 cir1
0 0 0 setrgbcolor
43750 44930 245.472 cir1
0 0 0 setrgbcolor
38000 43930 245.472 cir1
0 0 0 setrgbcolor
38000 44930 245.472 cir1
0 0 0 setrgbcolor
42250 25180 245.472 cir1
0 0 0 setrgbcolor
42250 22180 245.472 cir1
0 0 0 setrgbcolor
48000 25180 245.472 cir1
0 0 0 setrgbcolor
48000 22180 245.472 cir1
0 0 0 setrgbcolor
53750 25180 245.472 cir1
0 0 0 setrgbcolor
53750 22180 245.472 cir1
0 0 0 setrgbcolor
59500 25180 245.472 cir1
0 0 0 setrgbcolor
59500 22180 245.472 cir1
0 0 0 setrgbcolor
54000 46430 245.472 cir1
0 0 0 setrgbcolor
54000 49430 245.472 cir1
0 0 0 setrgbcolor
48250 46430 245.472 cir1
0 0 0 setrgbcolor
48250 49430 245.472 cir1
0 0 0 setrgbcolor
42500 46430 245.472 cir1
0 0 0 setrgbcolor
42500 49430 245.472 cir1
0 0 0 setrgbcolor
36750 46430 245.472 cir1
0 0 0 setrgbcolor
36750 49430 245.472 cir1
0 0 0 setrgbcolor
newpath
37246.1 32183.9 moveto
36753.9 32183.9 lineto
36753.9 32676.1 lineto
37246.1 32676.1 lineto
37246.1 32183.9 lineto
poly1
0 0 0 setrgbcolor
newpath
37246.1 33183.9 moveto
36753.9 33183.9 lineto
36753.9 33676.1 lineto
37246.1 33676.1 lineto
37246.1 33183.9 lineto
poly1
0 0 0 setrgbcolor
newpath
37246.1 34183.9 moveto
36753.9 34183.9 lineto
36753.9 34676.1 lineto
37246.1 34676.1 lineto
37246.1 34183.9 lineto
poly1
0 0 0 setrgbcolor
newpath
37246.1 35183.9 moveto
36753.9 35183.9 lineto
36753.9 35676.1 lineto
37246.1 35676.1 lineto
37246.1 35183.9 lineto
poly1
0 0 0 setrgbcolor
newpath
37246.1 36183.9 moveto
36753.9 36183.9 lineto
36753.9 36676.1 lineto
37246.1 36676.1 lineto
37246.1 36183.9 lineto
poly1
0 0 0 setrgbcolor
newpath
37246.1 37183.9 moveto
36753.9 37183.9 lineto
36753.9 37676.1 lineto
37246.1 37676.1 lineto
37246.1 37183.9 lineto
poly1
0 0 0 setrgbcolor
newpath
37246.1 38183.9 moveto
36753.9 38183.9 lineto
36753.9 38676.1 lineto
37246.1 38676.1 lineto
37246.1 38183.9 lineto
poly1
0 0 0 setrgbcolor
newpath
37246.1 39183.9 moveto
36753.9 39183.9 lineto
36753.9 39676.1 lineto
37246.1 39676.1 lineto
37246.1 39183.9 lineto
poly1
0 0 0 setrgbcolor
39250 32430 245.472 cir1
0 0 0 setrgbcolor
39250 34430 245.472 cir1
0 0 0 setrgbcolor
62500 49180 770.472 cir1
0 0 0 setrgbcolor
62500 22430 770.472 cir1
0 0 0 setrgbcolor
34500 49180 770.472 cir1
0 0 0 setrgbcolor
34500 22430 770.472 cir1
0 0 0 setrgbcolor
40500 36430 245.472 cir1
0 0 0 setrgbcolor
40500 34430 245.472 cir1
0 0 0 setrgbcolor
39500 36430 245.472 cir1
0 0 0 setrgbcolor
38500 36430 245.472 cir1
0 0 0 setrgbcolor
500 setlinewidth
newpath
40250 27930 moveto
40500 27680 lineto
stroke
0 0 0 setrgbcolor
newpath
39500 28680 moveto
40250 27930 lineto
stroke
0 0 0 setrgbcolor
newpath
40500 27680 moveto
41000 27680 lineto
stroke
0 0 0 setrgbcolor
newpath
39500 29180 moveto
39500 28680 lineto
stroke
0 0 0 setrgbcolor
newpath
40250 26180 moveto
38500 24430 lineto
stroke
0 0 0 setrgbcolor
newpath
40250 27930 moveto
40250 26180 lineto
stroke
0 0 0 setrgbcolor
748.031 setlinewidth
newpath
61500 36180 moveto
61000 36180 lineto
stroke
0 0 0 setrgbcolor
newpath
54000 49680 moveto
54000 49430 lineto
stroke
0 0 0 setrgbcolor
newpath
59500 49680 moveto
54000 49680 lineto
stroke
0 0 0 setrgbcolor
newpath
63000 37680 moveto
63000 46180 lineto
stroke
0 0 0 setrgbcolor
newpath
61500 36180 moveto
63000 37680 lineto
stroke
0 0 0 setrgbcolor
newpath
63000 46180 moveto
59500 49680 lineto
stroke
0 0 0 setrgbcolor
newpath
54000 49680 moveto
54000 49430 lineto
stroke
0 0 0 setrgbcolor
newpath
48250 49680 moveto
54000 49680 lineto
stroke
0 0 0 setrgbcolor
newpath
48250 49430 moveto
48250 49680 lineto
stroke
0 0 0 setrgbcolor
newpath
48250 49680 moveto
48250 49430 lineto
stroke
0 0 0 setrgbcolor
newpath
42500 49680 moveto
48250 49680 lineto
stroke
0 0 0 setrgbcolor
newpath
42500 49430 moveto
42500 49680 lineto
stroke
0 0 0 setrgbcolor
newpath
42500 49680 moveto
42500 49430 lineto
stroke
0 0 0 setrgbcolor
newpath
36750 49680 moveto
42500 49680 lineto
stroke
0 0 0 setrgbcolor
newpath
36750 49430 moveto
36750 49680 lineto
stroke
0 0 0 setrgbcolor
newpath
61000 36180 moveto
61500 36180 lineto
stroke
0 0 0 setrgbcolor
newpath
59750 22180 moveto
59500 22180 lineto
stroke
0 0 0 setrgbcolor
newpath
63000 34680 moveto
61500 36180 lineto
stroke
0 0 0 setrgbcolor
newpath
63000 34680 moveto
63000 25430 lineto
stroke
0 0 0 setrgbcolor
newpath
59750 22180 moveto
63000 25430 lineto
stroke
0 0 0 setrgbcolor
newpath
59250 22180 moveto
59500 22180 lineto
stroke
0 0 0 setrgbcolor
newpath
59000 21930 moveto
59250 22180 lineto
stroke
0 0 0 setrgbcolor
newpath
53750 21930 moveto
59000 21930 lineto
stroke
0 0 0 setrgbcolor
newpath
53750 22180 moveto
53750 21930 lineto
stroke
0 0 0 setrgbcolor
newpath
53750 21930 moveto
53750 22180 lineto
stroke
0 0 0 setrgbcolor
newpath
48000 21930 moveto
53750 21930 lineto
stroke
0 0 0 setrgbcolor
newpath
48000 22180 moveto
48000 21930 lineto
stroke
0 0 0 setrgbcolor
newpath
48000 21930 moveto
48000 22180 lineto
stroke
0 0 0 setrgbcolor
newpath
42250 21930 moveto
48000 21930 lineto
stroke
0 0 0 setrgbcolor
newpath
42250 22180 moveto
42250 21930 lineto
stroke
0 0 0 setrgbcolor
500 setlinewidth
newpath
46000 27930 moveto
46250 27680 lineto
stroke
0 0 0 setrgbcolor
newpath
45250 28680 moveto
46000 27930 lineto
stroke
0 0 0 setrgbcolor
newpath
46250 27680 moveto
46750 27680 lineto
stroke
0 0 0 setrgbcolor
newpath
45250 29180 moveto
45250 28680 lineto
stroke
0 0 0 setrgbcolor
newpath
46000 26180 moveto
44250 24430 lineto
stroke
0 0 0 setrgbcolor
newpath
46000 27930 moveto
46000 26180 lineto
stroke
0 0 0 setrgbcolor
newpath
51750 27930 moveto
52000 27680 lineto
stroke
0 0 0 setrgbcolor
newpath
51000 28680 moveto
51750 27930 lineto
stroke
0 0 0 setrgbcolor
newpath
52000 27680 moveto
52500 27680 lineto
stroke
0 0 0 setrgbcolor
newpath
51000 29180 moveto
51000 28680 lineto
stroke
0 0 0 setrgbcolor
newpath
51750 26180 moveto
50000 24430 lineto
stroke
0 0 0 setrgbcolor
newpath
51750 27930 moveto
51750 26180 lineto
stroke
0 0 0 setrgbcolor
newpath
57500 27930 moveto
57750 27680 lineto
stroke
0 0 0 setrgbcolor
newpath
56750 28680 moveto
57500 27930 lineto
stroke
0 0 0 setrgbcolor
newpath
57750 27680 moveto
58250 27680 lineto
stroke
0 0 0 setrgbcolor
newpath
56750 29180 moveto
56750 28680 lineto
stroke
0 0 0 setrgbcolor
newpath
57500 26180 moveto
55750 24430 lineto
stroke
0 0 0 setrgbcolor
newpath
57500 27930 moveto
57500 26180 lineto
stroke
0 0 0 setrgbcolor
newpath
56000 43680 moveto
55750 43930 lineto
stroke
0 0 0 setrgbcolor
newpath
56750 42930 moveto
56000 43680 lineto
stroke
0 0 0 setrgbcolor
newpath
55750 43930 moveto
55250 43930 lineto
stroke
0 0 0 setrgbcolor
newpath
56750 42430 moveto
56750 42930 lineto
stroke
0 0 0 setrgbcolor
newpath
56000 45430 moveto
57750 47180 lineto
stroke
0 0 0 setrgbcolor
newpath
56000 43680 moveto
56000 45430 lineto
stroke
0 0 0 setrgbcolor
newpath
50250 43680 moveto
50000 43930 lineto
stroke
0 0 0 setrgbcolor
newpath
51000 42930 moveto
50250 43680 lineto
stroke
0 0 0 setrgbcolor
newpath
50000 43930 moveto
49500 43930 lineto
stroke
0 0 0 setrgbcolor
newpath
51000 42430 moveto
51000 42930 lineto
stroke
0 0 0 setrgbcolor
newpath
50250 45430 moveto
52000 47180 lineto
stroke
0 0 0 setrgbcolor
newpath
50250 43680 moveto
50250 45430 lineto
stroke
0 0 0 setrgbcolor
newpath
44500 43680 moveto
44250 43930 lineto
stroke
0 0 0 setrgbcolor
newpath
45250 42930 moveto
44500 43680 lineto
stroke
0 0 0 setrgbcolor
newpath
44250 43930 moveto
43750 43930 lineto
stroke
0 0 0 setrgbcolor
newpath
45250 42430 moveto
45250 42930 lineto
stroke
0 0 0 setrgbcolor
newpath
44500 45430 moveto
46250 47180 lineto
stroke
0 0 0 setrgbcolor
newpath
44500 43680 moveto
44500 45430 lineto
stroke
0 0 0 setrgbcolor
newpath
38750 43680 moveto
38500 43930 lineto
stroke
0 0 0 setrgbcolor
newpath
39500 42930 moveto
38750 43680 lineto
stroke
0 0 0 setrgbcolor
newpath
38500 43930 moveto
38000 43930 lineto
stroke
0 0 0 setrgbcolor
newpath
39500 42430 moveto
39500 42930 lineto
stroke
0 0 0 setrgbcolor
newpath
38750 45430 moveto
38750 43680 lineto
stroke
0 0 0 setrgbcolor
newpath
40500 47180 moveto
38750 45430 lineto
stroke
0 0 0 setrgbcolor
newpath
38500 29180 moveto
38500 29680 lineto
stroke
0 0 0 setrgbcolor
newpath
43250 31430 moveto
43250 31430 lineto
stroke
0 0 0 setrgbcolor
newpath
40250 31430 moveto
43250 31430 lineto
stroke
0 0 0 setrgbcolor
newpath
38500 29680 moveto
40250 31430 lineto
stroke
0 0 0 setrgbcolor
newpath
43250 31430 moveto
46750 31430 lineto
stroke
0 0 0 setrgbcolor
newpath
42500 33430 moveto
43250 32680 lineto
stroke
0 0 0 setrgbcolor
newpath
41750 33430 moveto
42500 33430 lineto
stroke
0 0 0 setrgbcolor
newpath
43250 32680 moveto
43250 31430 lineto
stroke
0 0 0 setrgbcolor
newpath
38500 28430 moveto
39250 27680 lineto
stroke
0 0 0 setrgbcolor
newpath
38500 29180 moveto
38500 28430 lineto
stroke
0 0 0 setrgbcolor
newpath
39000 26680 moveto
39250 26680 lineto
stroke
0 0 0 setrgbcolor
newpath
38000 27680 moveto
39000 26680 lineto
stroke
0 0 0 setrgbcolor
newpath
37500 27680 moveto
38000 27680 lineto
stroke
0 0 0 setrgbcolor
newpath
44750 32430 moveto
46750 32430 lineto
stroke
0 0 0 setrgbcolor
newpath
47250 32430 moveto
47750 31930 lineto
stroke
0 0 0 setrgbcolor
newpath
47750 31930 moveto
47750 30930 lineto
stroke
0 0 0 setrgbcolor
newpath
47750 30930 moveto
47250 30430 lineto
stroke
0 0 0 setrgbcolor
newpath
47250 30430 moveto
45000 30430 lineto
stroke
0 0 0 setrgbcolor
newpath
45000 30430 moveto
44250 29680 lineto
stroke
0 0 0 setrgbcolor
newpath
44250 29680 moveto
44250 29180 lineto
stroke
0 0 0 setrgbcolor
newpath
46750 32430 moveto
47250 32430 lineto
stroke
0 0 0 setrgbcolor
newpath
44250 28430 moveto
45000 27680 lineto
stroke
0 0 0 setrgbcolor
newpath
44250 29180 moveto
44250 28430 lineto
stroke
0 0 0 setrgbcolor
newpath
44750 26680 moveto
45000 26680 lineto
stroke
0 0 0 setrgbcolor
newpath
43750 27680 moveto
44750 26680 lineto
stroke
0 0 0 setrgbcolor
newpath
43250 27680 moveto
43750 27680 lineto
stroke
0 0 0 setrgbcolor
newpath
46750 33430 moveto
44750 33430 lineto
stroke
0 0 0 setrgbcolor
newpath
47750 33430 moveto
50000 31180 lineto
stroke
0 0 0 setrgbcolor
newpath
50000 31180 moveto
50000 29180 lineto
stroke
0 0 0 setrgbcolor
newpath
46750 33430 moveto
47750 33430 lineto
stroke
0 0 0 setrgbcolor
newpath
50000 28430 moveto
50750 27680 lineto
stroke
0 0 0 setrgbcolor
newpath
50000 29180 moveto
50000 28430 lineto
stroke
0 0 0 setrgbcolor
newpath
50500 26680 moveto
50750 26680 lineto
stroke
0 0 0 setrgbcolor
newpath
49500 27680 moveto
50500 26680 lineto
stroke
0 0 0 setrgbcolor
newpath
49000 27680 moveto
49500 27680 lineto
stroke
0 0 0 setrgbcolor
newpath
44750 34430 moveto
46750 34430 lineto
stroke
0 0 0 setrgbcolor
newpath
51750 34430 moveto
55750 30430 lineto
stroke
0 0 0 setrgbcolor
newpath
55750 30430 moveto
55750 29180 lineto
stroke
0 0 0 setrgbcolor
newpath
46750 34430 moveto
51750 34430 lineto
stroke
0 0 0 setrgbcolor
newpath
55750 28430 moveto
56500 27680 lineto
stroke
0 0 0 setrgbcolor
newpath
55750 29180 moveto
55750 28430 lineto
stroke
0 0 0 setrgbcolor
newpath
56250 26680 moveto
56500 26680 lineto
stroke
0 0 0 setrgbcolor
newpath
55250 27680 moveto
56250 26680 lineto
stroke
0 0 0 setrgbcolor
newpath
54750 27680 moveto
55250 27680 lineto
stroke
0 0 0 setrgbcolor
newpath
46750 35430 moveto
44750 35430 lineto
stroke
0 0 0 setrgbcolor
newpath
51750 35430 moveto
57750 41430 lineto
stroke
0 0 0 setrgbcolor
newpath
57750 41430 moveto
57750 42430 lineto
stroke
0 0 0 setrgbcolor
newpath
46750 35430 moveto
51750 35430 lineto
stroke
0 0 0 setrgbcolor
newpath
57750 43180 moveto
57000 43930 lineto
stroke
0 0 0 setrgbcolor
newpath
57750 42430 moveto
57750 43180 lineto
stroke
0 0 0 setrgbcolor
newpath
57500 44930 moveto
57000 44930 lineto
stroke
0 0 0 setrgbcolor
newpath
58500 43930 moveto
57500 44930 lineto
stroke
0 0 0 setrgbcolor
newpath
58750 43930 moveto
58500 43930 lineto
stroke
0 0 0 setrgbcolor
newpath
44750 36430 moveto
46750 36430 lineto
stroke
0 0 0 setrgbcolor
newpath
47750 36430 moveto
52000 40680 lineto
stroke
0 0 0 setrgbcolor
newpath
52000 40680 moveto
52000 42430 lineto
stroke
0 0 0 setrgbcolor
newpath
46750 36430 moveto
47750 36430 lineto
stroke
0 0 0 setrgbcolor
newpath
52000 43180 moveto
51250 43930 lineto
stroke
0 0 0 setrgbcolor
newpath
52000 42430 moveto
52000 43180 lineto
stroke
0 0 0 setrgbcolor
newpath
51750 44930 moveto
51250 44930 lineto
stroke
0 0 0 setrgbcolor
newpath
52750 43930 moveto
51750 44930 lineto
stroke
0 0 0 setrgbcolor
newpath
53000 43930 moveto
52750 43930 lineto
stroke
0 0 0 setrgbcolor
newpath
46750 37430 moveto
44750 37430 lineto
stroke
0 0 0 setrgbcolor
newpath
47250 37430 moveto
47750 37930 lineto
stroke
0 0 0 setrgbcolor
newpath
47750 37930 moveto
47750 40930 lineto
stroke
0 0 0 setrgbcolor
newpath
47750 40930 moveto
46250 42430 lineto
stroke
0 0 0 setrgbcolor
newpath
46750 37430 moveto
47250 37430 lineto
stroke
0 0 0 setrgbcolor
newpath
46250 43180 moveto
45500 43930 lineto
stroke
0 0 0 setrgbcolor
newpath
46250 42430 moveto
46250 43180 lineto
stroke
0 0 0 setrgbcolor
newpath
45750 44930 moveto
45500 44930 lineto
stroke
0 0 0 setrgbcolor
newpath
46750 43930 moveto
45750 44930 lineto
stroke
0 0 0 setrgbcolor
newpath
47250 43930 moveto
46750 43930 lineto
stroke
0 0 0 setrgbcolor
newpath
44750 38430 moveto
46750 38430 lineto
stroke
0 0 0 setrgbcolor
newpath
40500 43180 moveto
39750 43930 lineto
stroke
0 0 0 setrgbcolor
newpath
40500 42430 moveto
40500 43180 lineto
stroke
0 0 0 setrgbcolor
newpath
43750 38930 moveto
44250 38430 lineto
stroke
0 0 0 setrgbcolor
newpath
44250 38430 moveto
44750 38430 lineto
stroke
0 0 0 setrgbcolor
newpath
40500 42430 moveto
41500 42430 lineto
stroke
0 0 0 setrgbcolor
newpath
43750 40180 moveto
41500 42430 lineto
stroke
0 0 0 setrgbcolor
newpath
43750 40180 moveto
43750 38930 lineto
stroke
0 0 0 setrgbcolor
newpath
40250 44930 moveto
39750 44930 lineto
stroke
0 0 0 setrgbcolor
newpath
41250 43930 moveto
40250 44930 lineto
stroke
0 0 0 setrgbcolor
newpath
41500 43930 moveto
41250 43930 lineto
stroke
0 0 0 setrgbcolor
newpath
35000 34430 moveto
34250 34430 lineto
stroke
0 0 0 setrgbcolor
newpath
37000 34430 moveto
39250 34430 lineto
stroke
0 0 0 setrgbcolor
newpath
35000 34430 moveto
37000 34430 lineto
stroke
0 0 0 setrgbcolor
newpath
39250 34430 moveto
40500 34430 lineto
stroke
0 0 0 setrgbcolor
newpath
37000 33430 moveto
38250 33430 lineto
stroke
0 0 0 setrgbcolor
newpath
38250 33430 moveto
39250 32430 lineto
stroke
0 0 0 setrgbcolor
newpath
35000 33430 moveto
37000 33430 lineto
stroke
0 0 0 setrgbcolor
newpath
37000 33430 moveto
37250 33430 lineto
stroke
0 0 0 setrgbcolor
newpath
37250 33430 moveto
37000 33430 lineto
stroke
0 0 0 setrgbcolor
newpath
39250 32430 moveto
41750 32430 lineto
stroke
0 0 0 setrgbcolor
newpath
41000 24930 moveto
40500 24430 lineto
stroke
0 0 0 setrgbcolor
newpath
41000 26680 moveto
41000 24930 lineto
stroke
0 0 0 setrgbcolor
newpath
41000 24930 moveto
40500 24430 lineto
stroke
0 0 0 setrgbcolor
newpath
41000 25180 moveto
41000 24930 lineto
stroke
0 0 0 setrgbcolor
newpath
42250 25180 moveto
41000 25180 lineto
stroke
0 0 0 setrgbcolor
newpath
46750 24930 moveto
46250 24430 lineto
stroke
0 0 0 setrgbcolor
newpath
46750 26680 moveto
46750 24930 lineto
stroke
0 0 0 setrgbcolor
newpath
46750 24930 moveto
46250 24430 lineto
stroke
0 0 0 setrgbcolor
newpath
46750 25180 moveto
46750 24930 lineto
stroke
0 0 0 setrgbcolor
newpath
48000 25180 moveto
46750 25180 lineto
stroke
0 0 0 setrgbcolor
newpath
52500 24930 moveto
52000 24430 lineto
stroke
0 0 0 setrgbcolor
newpath
52500 26680 moveto
52500 24930 lineto
stroke
0 0 0 setrgbcolor
newpath
52500 24930 moveto
52000 24430 lineto
stroke
0 0 0 setrgbcolor
newpath
52500 25180 moveto
52500 24930 lineto
stroke
0 0 0 setrgbcolor
newpath
53750 25180 moveto
52500 25180 lineto
stroke
0 0 0 setrgbcolor
newpath
58250 24930 moveto
57750 24430 lineto
stroke
0 0 0 setrgbcolor
newpath
58250 25180 moveto
58250 24930 lineto
stroke
0 0 0 setrgbcolor
newpath
58250 26680 moveto
58250 25180 lineto
stroke
0 0 0 setrgbcolor
newpath
58500 25180 moveto
58250 25180 lineto
stroke
0 0 0 setrgbcolor
newpath
58250 25180 moveto
58500 25180 lineto
stroke
0 0 0 setrgbcolor
newpath
59500 25180 moveto
58250 25180 lineto
stroke
0 0 0 setrgbcolor
newpath
55250 46680 moveto
55750 47180 lineto
stroke
0 0 0 setrgbcolor
newpath
55250 46430 moveto
55250 46680 lineto
stroke
0 0 0 setrgbcolor
newpath
55250 44930 moveto
55250 46430 lineto
stroke
0 0 0 setrgbcolor
newpath
55000 46430 moveto
55250 46430 lineto
stroke
0 0 0 setrgbcolor
newpath
55250 46430 moveto
55000 46430 lineto
stroke
0 0 0 setrgbcolor
newpath
54000 46430 moveto
55250 46430 lineto
stroke
0 0 0 setrgbcolor
newpath
49500 46680 moveto
50000 47180 lineto
stroke
0 0 0 setrgbcolor
newpath
49500 44930 moveto
49500 46680 lineto
stroke
0 0 0 setrgbcolor
newpath
49500 46680 moveto
50000 47180 lineto
stroke
0 0 0 setrgbcolor
newpath
49500 46430 moveto
49500 46680 lineto
stroke
0 0 0 setrgbcolor
newpath
48250 46430 moveto
49500 46430 lineto
stroke
0 0 0 setrgbcolor
newpath
43750 46680 moveto
44250 47180 lineto
stroke
0 0 0 setrgbcolor
newpath
43750 46430 moveto
43750 46680 lineto
stroke
0 0 0 setrgbcolor
newpath
43750 44930 moveto
43750 46430 lineto
stroke
0 0 0 setrgbcolor
newpath
43500 46430 moveto
43750 46430 lineto
stroke
0 0 0 setrgbcolor
newpath
43750 46430 moveto
43500 46430 lineto
stroke
0 0 0 setrgbcolor
newpath
42500 46430 moveto
43750 46430 lineto
stroke
0 0 0 setrgbcolor
newpath
38000 46680 moveto
38500 47180 lineto
stroke
0 0 0 setrgbcolor
newpath
38000 44930 moveto
38000 46680 lineto
stroke
0 0 0 setrgbcolor
newpath
38000 46680 moveto
38500 47180 lineto
stroke
0 0 0 setrgbcolor
newpath
38000 46430 moveto
38000 46680 lineto
stroke
0 0 0 setrgbcolor
newpath
36750 46430 moveto
38000 46430 lineto
stroke
0 0 0 setrgbcolor
newpath
37000 35430 moveto
41750 35430 lineto
stroke
0 0 0 setrgbcolor
newpath
35000 35430 moveto
37000 35430 lineto
stroke
0 0 0 setrgbcolor
newpath
38500 36430 moveto
37000 36430 lineto
stroke
0 0 0 setrgbcolor
newpath
35000 36430 moveto
37000 36430 lineto
stroke
0 0 0 setrgbcolor
newpath
37000 37430 moveto
41750 37430 lineto
stroke
0 0 0 setrgbcolor
newpath
35000 37430 moveto
37000 37430 lineto
stroke
0 0 0 setrgbcolor
newpath
37000 38430 moveto
35000 38430 lineto
stroke
0 0 0 setrgbcolor
newpath
41750 38430 moveto
37000 38430 lineto
stroke
0 0 0 setrgbcolor
newpath
37000 39430 moveto
41750 39430 lineto
stroke
0 0 0 setrgbcolor
newpath
42750 34930 moveto
42750 39930 lineto
stroke
0 0 0 setrgbcolor
newpath
42250 34430 moveto
42750 34930 lineto
stroke
0 0 0 setrgbcolor
newpath
41750 34430 moveto
42250 34430 lineto
stroke
0 0 0 setrgbcolor
newpath
36000 40430 moveto
35000 39430 lineto
stroke
0 0 0 setrgbcolor
newpath
42250 40430 moveto
36000 40430 lineto
stroke
0 0 0 setrgbcolor
newpath
42750 39930 moveto
42250 40430 lineto
stroke
0 0 0 setrgbcolor
newpath
35000 32430 moveto
37000 32430 lineto
stroke
0 0 0 setrgbcolor
newpath
39500 36430 moveto
40500 36430 lineto
stroke
0 0 0 setrgbcolor
newpath
41750 36430 moveto
40500 36430 lineto
stroke
0 0 0 setrgbcolor
59.0551 setlinewidth
newpath
62153.5 25780.6 moveto
62051.2 25678.3 lineto
62051.2 33570.4 lineto
62051.2 33904.4 lineto
61913.4 34042.2 lineto
61137.8 34042.2 lineto
61137.8 33266.6 lineto
61275.6 33128.8 lineto
61390.4 33128.8 lineto
61609.6 33128.8 lineto
61812.2 33212.7 lineto
61967.3 33367.8 lineto
62051.2 33570.4 lineto
62051.2 25678.3 lineto
60862.2 24489.3 lineto
60862.2 33266.6 lineto
60862.2 34042.2 lineto
60086.6 34042.2 lineto
59948.8 33904.4 lineto
59948.8 33570.4 lineto
60032.7 33367.8 lineto
60187.8 33212.7 lineto
60390.4 33128.8 lineto
60609.6 33128.8 lineto
60724.4 33128.8 lineto
60862.2 33266.6 lineto
60862.2 24489.3 lineto
60247.6 23874.6 lineto
60247.6 25328 lineto
60134 25602.8 lineto
59923.9 25813.3 lineto
59649.3 25927.3 lineto
59590.2 25927.4 lineto
59352 25927.6 lineto
59291.2 25902.4 lineto
58972.4 25902.4 lineto
58972.4 26470.8 lineto
58997.3 26530.7 lineto
58997.6 26828 lineto
58884 27102.8 lineto
58807 27180 lineto
58883.3 27256.1 lineto
58997.3 27530.7 lineto
58997.6 27828 lineto
58884 28102.8 lineto
58673.9 28313.3 lineto
58399.3 28427.3 lineto
58376.9 28427.3 lineto
58506.6 28588.7 lineto
58600.1 28908.3 lineto
58600.1 29451.7 lineto
58506.6 29771.3 lineto
58298 30030.8 lineto
58016.8 30180.1 lineto
57887.8 30071.9 lineto
57887.8 29317.8 lineto
58463.6 29317.8 lineto
58600.1 29451.7 lineto
58600.1 28908.3 lineto
58463.6 29042.2 lineto
57887.8 29042.2 lineto
57887.8 29034.3 lineto
57612.2 29034.3 lineto
57612.2 29042.2 lineto
57604.3 29042.2 lineto
57604.3 29317.8 lineto
57612.2 29317.8 lineto
57612.2 30071.9 lineto
57483.2 30180.1 lineto
57202 30030.8 lineto
57185.5 30010.3 lineto
57143.7 30038.2 lineto
57143.7 39802 lineto
58260.8 40919.2 lineto
58417.4 41153.5 lineto
58472.4 41430 lineto
58472.4 41985.9 lineto
58517.9 42214.6 lineto
58517.9 42645.4 lineto
58472.4 42874.1 lineto
58472.4 43180 lineto
58465.6 43214.4 lineto
58500 43207.6 lineto
58540.8 43207.6 lineto
58600.7 43182.7 lineto
58898 43182.4 lineto
59172.8 43296 lineto
59383.3 43506.1 lineto
59497.3 43780.7 lineto
59497.6 44078 lineto
59384 44352.8 lineto
59371.9 44365 lineto
59440.9 44434 lineto
59336.2 44538.6 lineto
59503.2 44552.8 lineto
59590.2 44869.7 lineto
59549.3 45195.8 lineto
59503.2 45307.2 lineto
59335.9 45321.4 lineto
59141.4 45126.9 lineto
59141.4 45515.9 lineto
59127.2 45683.2 lineto
58810.3 45770.2 lineto
58484.2 45729.3 lineto
58372.8 45683.2 lineto
58358.6 45515.9 lineto
58750 45124.5 lineto
59141.4 45515.9 lineto
59141.4 45126.9 lineto
58944.5 44930 lineto
58950.2 44924.2 lineto
58755.8 44729.8 lineto
58750 44735.5 lineto
58744.2 44729.8 lineto
58549.8 44924.2 lineto
58555.5 44930 lineto
58164.1 45321.4 lineto
58132.9 45318.8 lineto
58010.8 45440.8 lineto
57776.5 45597.4 lineto
57500 45652.4 lineto
57244.1 45652.4 lineto
57799.2 46207.5 lineto
57942.6 46207.4 lineto
58300.1 46355.1 lineto
58573.9 46628.4 lineto
58722.3 46985.7 lineto
58722.6 47372.6 lineto
58574.9 47730.1 lineto
58301.6 48003.9 lineto
57944.3 48152.3 lineto
57557.4 48152.6 lineto
57199.9 48004.9 lineto
56926.1 47731.6 lineto
56777.7 47374.3 lineto
56777.6 47229.3 lineto
56722.4 47174.1 lineto
56722.4 47774 lineto
56650.5 47947.6 lineto
56517.6 48080.5 lineto
56344 48152.4 lineto
56156 48152.4 lineto
55156 48152.4 lineto
54982.4 48080.5 lineto
54849.5 47947.6 lineto
54777.6 47774 lineto
54777.6 47586 lineto
54777.6 47229.2 lineto
54739.2 47190.8 lineto
54713.5 47152.4 lineto
54209.2 47152.4 lineto
54149.3 47177.3 lineto
53852 47177.6 lineto
53577.2 47064 lineto
53366.7 46853.9 lineto
53252.7 46579.3 lineto
53252.4 46282 lineto
53366 46007.2 lineto
53576.1 45796.7 lineto
53850.7 45682.7 lineto
54148 45682.4 lineto
54208.8 45707.6 lineto
54527.6 45707.6 lineto
54527.6 45139.2 lineto
54502.7 45079.3 lineto
54502.4 44782 lineto
54616 44507.2 lineto
54693 44430.1 lineto
54616.7 44353.9 lineto
54502.7 44079.3 lineto
54502.4 43782 lineto
54616 43507.2 lineto
54826.1 43296.7 lineto
55100.7 43182.7 lineto
55123.1 43182.7 lineto
54993.4 43021.3 lineto
54899.9 42701.7 lineto
55036.4 42567.8 lineto
55612.2 42567.8 lineto
55612.2 42575.7 lineto
55887.8 42575.7 lineto
55887.8 42567.8 lineto
55895.7 42567.8 lineto
55895.7 42292.2 lineto
55887.8 42292.2 lineto
55887.8 41538.1 lineto
56016.8 41429.9 lineto
56298 41579.2 lineto
56314.5 41599.7 lineto
56456.1 41505.1 lineto
56745.8 41447.5 lineto
55612.2 40313.9 lineto
55612.2 41538.1 lineto
55612.2 42292.2 lineto
55036.4 42292.2 lineto
54899.9 42158.3 lineto
54993.4 41838.7 lineto
55202 41579.2 lineto
55483.2 41429.9 lineto
55612.2 41538.1 lineto
55612.2 40313.9 lineto
53840.2 38541.9 lineto
51450.8 36152.4 lineto
48494.1 36152.4 lineto
52510.8 40169.2 lineto
52667.4 40403.5 lineto
52722.4 40680 lineto
52722.4 41985.9 lineto
52767.9 42214.6 lineto
52767.9 42645.4 lineto
52722.4 42874.1 lineto
52722.4 43180 lineto
52715.6 43214.4 lineto
52750 43207.6 lineto
52790.8 43207.6 lineto
52850.7 43182.7 lineto
53148 43182.4 lineto
53422.8 43296 lineto
53633.3 43506.1 lineto
53747.3 43780.7 lineto
53747.6 44078 lineto
53634 44352.8 lineto
53621.9 44365 lineto
53690.9 44434 lineto
53586.2 44538.6 lineto
53753.2 44552.8 lineto
53840.2 44869.7 lineto
53799.3 45195.8 lineto
53753.2 45307.2 lineto
53585.9 45321.4 lineto
53391.4 45126.9 lineto
53391.4 45515.9 lineto
53377.2 45683.2 lineto
53060.3 45770.2 lineto
52734.2 45729.3 lineto
52622.8 45683.2 lineto
52608.6 45515.9 lineto
53000 45124.5 lineto
53391.4 45515.9 lineto
53391.4 45126.9 lineto
53194.5 44930 lineto
53200.2 44924.2 lineto
53005.8 44729.8 lineto
53000 44735.5 lineto
52994.2 44729.8 lineto
52799.8 44924.2 lineto
52805.5 44930 lineto
52414.1 45321.4 lineto
52382.9 45318.8 lineto
52260.8 45440.8 lineto
52026.5 45597.4 lineto
51750 45652.4 lineto
51494.1 45652.4 lineto
52049.2 46207.5 lineto
52192.6 46207.4 lineto
52550.1 46355.1 lineto
52823.9 46628.4 lineto
52972.3 46985.7 lineto
52972.6 47372.6 lineto
52824.9 47730.1 lineto
52551.6 48003.9 lineto
52194.3 48152.3 lineto
51807.4 48152.6 lineto
51449.9 48004.9 lineto
51176.1 47731.6 lineto
51027.7 47374.3 lineto
51027.6 47229.3 lineto
50972.4 47174.1 lineto
50972.4 47774 lineto
50900.5 47947.6 lineto
50767.6 48080.5 lineto
50594 48152.4 lineto
50406 48152.4 lineto
49406 48152.4 lineto
49232.4 48080.5 lineto
49099.5 47947.6 lineto
49027.6 47774 lineto
49027.6 47586 lineto
49027.6 47229.2 lineto
48989.2 47190.8 lineto
48963.5 47152.4 lineto
48459.2 47152.4 lineto
48399.3 47177.3 lineto
48102 47177.6 lineto
47827.2 47064 lineto
47616.7 46853.9 lineto
47502.7 46579.3 lineto
47502.4 46282 lineto
47616 46007.2 lineto
47826.1 45796.7 lineto
48100.7 45682.7 lineto
48398 45682.4 lineto
48458.8 45707.6 lineto
48777.6 45707.6 lineto
48777.6 45139.2 lineto
48752.7 45079.3 lineto
48752.4 44782 lineto
48866 44507.2 lineto
48943 44430.1 lineto
48866.7 44353.9 lineto
48752.7 44079.3 lineto
48752.4 43782 lineto
48866 43507.2 lineto
49076.1 43296.7 lineto
49350.7 43182.7 lineto
49373.1 43182.7 lineto
49243.4 43021.3 lineto
49149.9 42701.7 lineto
49286.4 42567.8 lineto
49862.2 42567.8 lineto
49862.2 42575.7 lineto
50137.8 42575.7 lineto
50137.8 42567.8 lineto
50145.7 42567.8 lineto
50145.7 42292.2 lineto
50137.8 42292.2 lineto
50137.8 41538.1 lineto
50266.8 41429.9 lineto
50548 41579.2 lineto
50564.5 41599.7 lineto
50706.1 41505.1 lineto
51000 41446.7 lineto
51277.6 41501.9 lineto
51277.6 40979.2 lineto
49862.2 39563.9 lineto
49862.2 41538.1 lineto
49862.2 42292.2 lineto
49286.4 42292.2 lineto
49149.9 42158.3 lineto
49243.4 41838.7 lineto
49452 41579.2 lineto
49733.2 41429.9 lineto
49862.2 41538.1 lineto
49862.2 39563.9 lineto
48472.4 38174.1 lineto
48472.4 40930 lineto
48417.4 41206.5 lineto
48260.8 41440.8 lineto
48090.2 41611.5 lineto
47008.4 42693.3 lineto
46972.4 42874.1 lineto
46972.4 43180 lineto
46967 43207.6 lineto
47040.8 43207.6 lineto
47100.7 43182.7 lineto
47398 43182.4 lineto
47672.8 43296 lineto
47883.3 43506.1 lineto
47997.3 43780.7 lineto
47997.6 44078 lineto
47884 44352.8 lineto
47871.9 44365 lineto
47940.9 44434 lineto
47836.2 44538.6 lineto
48003.2 44552.8 lineto
48090.2 44869.7 lineto
48049.3 45195.8 lineto
48003.2 45307.2 lineto
47835.9 45321.4 lineto
47641.4 45126.9 lineto
47641.4 45515.9 lineto
47627.2 45683.2 lineto
47310.3 45770.2 lineto
46984.2 45729.3 lineto
46872.8 45683.2 lineto
46858.6 45515.9 lineto
47250 45124.5 lineto
47641.4 45515.9 lineto
47641.4 45126.9 lineto
47444.5 44930 lineto
47450.2 44924.2 lineto
47255.8 44729.8 lineto
47250 44735.5 lineto
47244.2 44729.8 lineto
47049.8 44924.2 lineto
47055.5 44930 lineto
46664.1 45321.4 lineto
46496.8 45307.2 lineto
46474.8 45226.9 lineto
46260.8 45440.8 lineto
46026.5 45597.4 lineto
45750 45652.4 lineto
45744.1 45652.4 lineto
46299.2 46207.5 lineto
46442.6 46207.4 lineto
46800.1 46355.1 lineto
47073.9 46628.4 lineto
47222.3 46985.7 lineto
47222.6 47372.6 lineto
47074.9 47730.1 lineto
46801.6 48003.9 lineto
46444.3 48152.3 lineto
46057.4 48152.6 lineto
45699.9 48004.9 lineto
45426.1 47731.6 lineto
45277.7 47374.3 lineto
45277.6 47229.3 lineto
45222.4 47174.1 lineto
45222.4 47774 lineto
45150.5 47947.6 lineto
45017.6 48080.5 lineto
44844 48152.4 lineto
44656 48152.4 lineto
43656 48152.4 lineto
43482.4 48080.5 lineto
43349.5 47947.6 lineto
43277.6 47774 lineto
43277.6 47586 lineto
43277.6 47229.2 lineto
43239.2 47190.8 lineto
43213.5 47152.4 lineto
42709.2 47152.4 lineto
42649.3 47177.3 lineto
42352 47177.6 lineto
42077.2 47064 lineto
41866.7 46853.9 lineto
41752.7 46579.3 lineto
41752.4 46282 lineto
41866 46007.2 lineto
42076.1 45796.7 lineto
42350.7 45682.7 lineto
42648 45682.4 lineto
42708.8 45707.6 lineto
43027.6 45707.6 lineto
43027.6 45139.2 lineto
43002.7 45079.3 lineto
43002.4 44782 lineto
43116 44507.2 lineto
43193 44430.1 lineto
43116.7 44353.9 lineto
43002.7 44079.3 lineto
43002.4 43782 lineto
43116 43507.2 lineto
43326.1 43296.7 lineto
43600.7 43182.7 lineto
43623.1 43182.7 lineto
43493.4 43021.3 lineto
43399.9 42701.7 lineto
43536.4 42567.8 lineto
44112.2 42567.8 lineto
44112.2 42575.7 lineto
44387.8 42575.7 lineto
44387.8 42567.8 lineto
44395.7 42567.8 lineto
44395.7 42292.2 lineto
44387.8 42292.2 lineto
44387.8 41538.1 lineto
44516.8 41429.9 lineto
44798 41579.2 lineto
44814.5 41599.7 lineto
44956.1 41505.1 lineto
45250 41446.7 lineto
45543.9 41505.1 lineto
45750 41642.8 lineto
45956.1 41505.1 lineto
46202.1 41456.2 lineto
47027.6 40630.8 lineto
47027.6 40256.2 lineto
47025.3 40256.2 lineto
46887.5 40118.4 lineto
46887.5 39567.5 lineto
46895.7 39567.5 lineto
46895.7 39292.5 lineto
46887.5 39292.5 lineto
46887.5 39284.3 lineto
46612.5 39284.3 lineto
46612.5 39292.5 lineto
46612.5 39567.5 lineto
46612.5 40118.4 lineto
46474.7 40256.2 lineto
46365.4 40256.2 lineto
46162.8 40172.3 lineto
46007.7 40017.2 lineto
45923.8 39814.6 lineto
45923.8 39705.3 lineto
46061.6 39567.5 lineto
46612.5 39567.5 lineto
46612.5 39292.5 lineto
46061.6 39292.5 lineto
45923.8 39154.7 lineto
45923.8 39152.4 lineto
45703.7 39152.4 lineto
45708.1 39160.9 lineto
45708.1 39699.1 lineto
45585.6 39938.1 lineto
45338.2 40165.6 lineto
45022.6 40281.1 lineto
44887.8 40153.6 lineto
44887.8 39567.8 lineto
45600.1 39567.8 lineto
45708.1 39699.1 lineto
45708.1 39160.9 lineto
45600.1 39292.2 lineto
44887.8 39292.2 lineto
44887.8 39284.3 lineto
44612.2 39284.3 lineto
44612.2 39292.2 lineto
44604.3 39292.2 lineto
44604.3 39567.8 lineto
44612.2 39567.8 lineto
44612.2 40153.6 lineto
44477.4 40281.1 lineto
44454 40272.5 lineto
44417.4 40456.5 lineto
44260.8 40690.8 lineto
44112.2 40839.5 lineto
44112.2 41538.1 lineto
44112.2 42292.2 lineto
43536.4 42292.2 lineto
43399.9 42158.3 lineto
43493.4 41838.7 lineto
43702 41579.2 lineto
43983.2 41429.9 lineto
44112.2 41538.1 lineto
44112.2 40839.5 lineto
42340.2 42611.5 lineto
42010.8 42940.8 lineto
41776.5 43097.4 lineto
41500 43152.4 lineto
41222.4 43152.4 lineto
41222.4 43180 lineto
41215.6 43214.4 lineto
41250 43207.6 lineto
41290.8 43207.6 lineto
41350.7 43182.7 lineto
41648 43182.4 lineto
41922.8 43296 lineto
42133.3 43506.1 lineto
42247.3 43780.7 lineto
42247.6 44078 lineto
42134 44352.8 lineto
42121.9 44365 lineto
42190.9 44434 lineto
42086.2 44538.6 lineto
42253.2 44552.8 lineto
42340.2 44869.7 lineto
42299.3 45195.8 lineto
42253.2 45307.2 lineto
42085.9 45321.4 lineto
41891.4 45126.9 lineto
41891.4 45515.9 lineto
41877.2 45683.2 lineto
41560.3 45770.2 lineto
41234.2 45729.3 lineto
41122.8 45683.2 lineto
41108.6 45515.9 lineto
41500 45124.5 lineto
41891.4 45515.9 lineto
41891.4 45126.9 lineto
41694.5 44930 lineto
41700.2 44924.2 lineto
41505.8 44729.8 lineto
41500 44735.5 lineto
41494.2 44729.8 lineto
41299.8 44924.2 lineto
41305.5 44930 lineto
40914.1 45321.4 lineto
40882.9 45318.8 lineto
40760.8 45440.8 lineto
40526.5 45597.4 lineto
40250 45652.4 lineto
39994.1 45652.4 lineto
40549.2 46207.5 lineto
40692.6 46207.4 lineto
41050.1 46355.1 lineto
41323.9 46628.4 lineto
41472.3 46985.7 lineto
41472.6 47372.6 lineto
41324.9 47730.1 lineto
41051.6 48003.9 lineto
40694.3 48152.3 lineto
40307.4 48152.6 lineto
39949.9 48004.9 lineto
39676.1 47731.6 lineto
39527.7 47374.3 lineto
39527.6 47229.3 lineto
39472.4 47174.1 lineto
39472.4 47774 lineto
39400.5 47947.6 lineto
39267.6 48080.5 lineto
39094 48152.4 lineto
38906 48152.4 lineto
37906 48152.4 lineto
37732.4 48080.5 lineto
37599.5 47947.6 lineto
37527.6 47774 lineto
37527.6 47586 lineto
37527.6 47229.2 lineto
37489.2 47190.8 lineto
37463.5 47152.4 lineto
36959.2 47152.4 lineto
36899.3 47177.3 lineto
36602 47177.6 lineto
36327.2 47064 lineto
36116.7 46853.9 lineto
36002.7 46579.3 lineto
36002.4 46282 lineto
36116 46007.2 lineto
36326.1 45796.7 lineto
36600.7 45682.7 lineto
36898 45682.4 lineto
36958.8 45707.6 lineto
37277.6 45707.6 lineto
37277.6 45139.2 lineto
37252.7 45079.3 lineto
37252.4 44782 lineto
37366 44507.2 lineto
37443 44430.1 lineto
37366.7 44353.9 lineto
37252.7 44079.3 lineto
37252.4 43782 lineto
37366 43507.2 lineto
37576.1 43296.7 lineto
37850.7 43182.7 lineto
37873.1 43182.7 lineto
37743.4 43021.3 lineto
37649.9 42701.7 lineto
37786.4 42567.8 lineto
38362.2 42567.8 lineto
38362.2 42575.7 lineto
38637.8 42575.7 lineto
38637.8 42567.8 lineto
38645.7 42567.8 lineto
38645.7 42292.2 lineto
38637.8 42292.2 lineto
38637.8 41538.1 lineto
38766.8 41429.9 lineto
39048 41579.2 lineto
39064.5 41599.7 lineto
39206.1 41505.1 lineto
39500 41446.7 lineto
39793.9 41505.1 lineto
40000 41642.8 lineto
40206.1 41505.1 lineto
40500 41446.7 lineto
40793.9 41505.1 lineto
41043 41671.6 lineto
41067.1 41707.6 lineto
41200.8 41707.6 lineto
41755.9 41152.4 lineto
38362.2 41152.4 lineto
38362.2 41538.1 lineto
38362.2 42292.2 lineto
37786.4 42292.2 lineto
37649.9 42158.3 lineto
37743.4 41838.7 lineto
37952 41579.2 lineto
38233.2 41429.9 lineto
38362.2 41538.1 lineto
38362.2 41152.4 lineto
36000 41152.4 lineto
35723.5 41097.4 lineto
35489.2 40940.8 lineto
34726.3 40178 lineto
34630.4 40178 lineto
34456.8 40106.1 lineto
34323.9 39973.2 lineto
34252 39799.6 lineto
34252 39611.6 lineto
34252 39060.4 lineto
34306 38930 lineto
34252 38799.6 lineto
34252 38611.6 lineto
34252 38060.4 lineto
34306 37930 lineto
34252 37799.6 lineto
34252 37611.6 lineto
34252 37060.4 lineto
34306 36930 lineto
34252 36799.6 lineto
34252 36611.6 lineto
34252 36060.4 lineto
34306 35930 lineto
34252 35799.6 lineto
34252 35611.6 lineto
34252 35060.4 lineto
34266 35026.6 lineto
34257.1 35017.8 lineto
34173.2 34815.2 lineto
34173.2 34705.6 lineto
34311 34567.8 lineto
34435 34567.8 lineto
34435 34292.2 lineto
34311 34292.2 lineto
34173.2 34154.4 lineto
34173.2 34044.8 lineto
34257.1 33842.2 lineto
34266 33833.4 lineto
34252 33799.6 lineto
34252 33611.6 lineto
34252 33060.4 lineto
34306 32930 lineto
34252 32799.6 lineto
34252 32611.6 lineto
34252 32060.4 lineto
34323.9 31886.8 lineto
34456.8 31753.9 lineto
34630.4 31682 lineto
34818.4 31682 lineto
35369.6 31682 lineto
35431.3 31707.6 lineto
36568.7 31707.6 lineto
36630.4 31682 lineto
36818.4 31682 lineto
37369.6 31682 lineto
37543.2 31753.9 lineto
37676.1 31886.8 lineto
37748 32060.4 lineto
37748 32248.4 lineto
37748 32707.6 lineto
37950.8 32707.6 lineto
38591.2 32067.1 lineto
38616 32007.2 lineto
38826.1 31796.7 lineto
39100.7 31682.7 lineto
39398 31682.4 lineto
39458.8 31707.6 lineto
39505.9 31707.6 lineto
37989.2 30190.8 lineto
37832.6 29956.5 lineto
37777.6 29680 lineto
37777.6 29624.1 lineto
37732.1 29395.4 lineto
37732.1 28964.6 lineto
37777.6 28735.9 lineto
37777.6 28430 lineto
37783 28402.4 lineto
37709.2 28402.4 lineto
37649.3 28427.3 lineto
37352 28427.6 lineto
37077.2 28314 lineto
36866.7 28103.9 lineto
36752.7 27829.3 lineto
36752.4 27532 lineto
36866 27257.2 lineto
36878.1 27245 lineto
36809.1 27176 lineto
36913.8 27071.4 lineto
36746.8 27057.2 lineto
36659.8 26740.3 lineto
36700.7 26414.2 lineto
36746.8 26302.8 lineto
36914.1 26288.6 lineto
37305.5 26680 lineto
37299.8 26685.8 lineto
37494.2 26880.2 lineto
37500 26874.5 lineto
37505.8 26880.2 lineto
37700.2 26685.8 lineto
37694.5 26680 lineto
38085.9 26288.6 lineto
38253.2 26302.8 lineto
38275.2 26383.1 lineto
38489.2 26169.2 lineto
38723.5 26012.6 lineto
38723.5 26012.6 lineto
39000 25957.6 lineto
39005.9 25957.6 lineto
38450.8 25402.5 lineto
38307.4 25402.6 lineto
37949.9 25254.9 lineto
37891.4 25196.5 lineto
37891.4 26094.1 lineto
37500 26485.5 lineto
37305.5 26291.1 lineto
37108.6 26094.1 lineto
37122.8 25926.8 lineto
37439.7 25839.8 lineto
37765.8 25880.7 lineto
37877.2 25926.8 lineto
37891.4 26094.1 lineto
37891.4 25196.5 lineto
37676.1 24981.6 lineto
37527.7 24624.3 lineto
37527.4 24237.4 lineto
37675.1 23879.9 lineto
37948.4 23606.1 lineto
38305.7 23457.7 lineto
38692.6 23457.4 lineto
39050.1 23605.1 lineto
39323.9 23878.4 lineto
39472.3 24235.7 lineto
39472.4 24380.7 lineto
39527.6 24435.9 lineto
39527.6 23836 lineto
39599.5 23662.4 lineto
39732.4 23529.5 lineto
39906 23457.6 lineto
40094 23457.6 lineto
41094 23457.6 lineto
41267.6 23529.5 lineto
41400.5 23662.4 lineto
41472.4 23836 lineto
41472.4 24024 lineto
41472.4 24380.8 lineto
41510.8 24419.2 lineto
41536.5 24457.6 lineto
42040.8 24457.6 lineto
42100.7 24432.7 lineto
42398 24432.4 lineto
42672.8 24546 lineto
42883.3 24756.1 lineto
42997.3 25030.7 lineto
42997.6 25328 lineto
42884 25602.8 lineto
42673.9 25813.3 lineto
42399.3 25927.3 lineto
42102 25927.6 lineto
42041.2 25902.4 lineto
41722.4 25902.4 lineto
41722.4 26470.8 lineto
41747.3 26530.7 lineto
41747.6 26828 lineto
41634 27102.8 lineto
41557 27180 lineto
41633.3 27256.1 lineto
41747.3 27530.7 lineto
41747.6 27828 lineto
41634 28102.8 lineto
41423.9 28313.3 lineto
41149.3 28427.3 lineto
41126.9 28427.3 lineto
41256.6 28588.7 lineto
41350.1 28908.3 lineto
41350.1 29451.7 lineto
41256.6 29771.3 lineto
41048 30030.8 lineto
40766.8 30180.1 lineto
40637.8 30071.9 lineto
40637.8 29317.8 lineto
41213.6 29317.8 lineto
41350.1 29451.7 lineto
41350.1 28908.3 lineto
41213.6 29042.2 lineto
40637.8 29042.2 lineto
40637.8 29034.3 lineto
40362.2 29034.3 lineto
40362.2 29042.2 lineto
40354.3 29042.2 lineto
40354.3 29317.8 lineto
40362.2 29317.8 lineto
40362.2 30071.9 lineto
40233.2 30180.1 lineto
39952 30030.8 lineto
39935.5 30010.3 lineto
39885.4 30043.7 lineto
40549.2 30707.6 lineto
43250 30707.6 lineto
44255.9 30707.6 lineto
43739.2 30190.8 lineto
43582.6 29956.5 lineto
43527.6 29680 lineto
43527.6 29624.1 lineto
43482.1 29395.4 lineto
43482.1 28964.6 lineto
43527.6 28735.9 lineto
43527.6 28430 lineto
43533 28402.4 lineto
43459.2 28402.4 lineto
43399.3 28427.3 lineto
43102 28427.6 lineto
42827.2 28314 lineto
42616.7 28103.9 lineto
42502.7 27829.3 lineto
42502.4 27532 lineto
42616 27257.2 lineto
42628.1 27245 lineto
42559.1 27176 lineto
42663.8 27071.4 lineto
42496.8 27057.2 lineto
42409.8 26740.3 lineto
42450.7 26414.2 lineto
42496.8 26302.8 lineto
42664.1 26288.6 lineto
43055.5 26680 lineto
43049.8 26685.8 lineto
43244.2 26880.2 lineto
43250 26874.5 lineto
43255.8 26880.2 lineto
43450.2 26685.8 lineto
43444.5 26680 lineto
43835.9 26288.6 lineto
44003.2 26302.8 lineto
44025.2 26383.1 lineto
44239.2 26169.2 lineto
44473.5 26012.6 lineto
44473.5 26012.6 lineto
44750 25957.6 lineto
44755.9 25957.6 lineto
44200.8 25402.5 lineto
44057.4 25402.6 lineto
43699.9 25254.9 lineto
43641.4 25196.5 lineto
43641.4 26094.1 lineto
43250 26485.5 lineto
43055.5 26291.1 lineto
42858.6 26094.1 lineto
42872.8 25926.8 lineto
43189.7 25839.8 lineto
43515.8 25880.7 lineto
43627.2 25926.8 lineto
43641.4 26094.1 lineto
43641.4 25196.5 lineto
43426.1 24981.6 lineto
43277.7 24624.3 lineto
43277.4 24237.4 lineto
43425.1 23879.9 lineto
43698.4 23606.1 lineto
44055.7 23457.7 lineto
44442.6 23457.4 lineto
44800.1 23605.1 lineto
45073.9 23878.4 lineto
45222.3 24235.7 lineto
45222.4 24380.7 lineto
45277.6 24435.9 lineto
45277.6 23836 lineto
45349.5 23662.4 lineto
45482.4 23529.5 lineto
45656 23457.6 lineto
45844 23457.6 lineto
46844 23457.6 lineto
47017.6 23529.5 lineto
47150.5 23662.4 lineto
47222.4 23836 lineto
47222.4 24024 lineto
47222.4 24380.8 lineto
47260.8 24419.2 lineto
47286.5 24457.6 lineto
47790.8 24457.6 lineto
47850.7 24432.7 lineto
48148 24432.4 lineto
48422.8 24546 lineto
48633.3 24756.1 lineto
48747.3 25030.7 lineto
48747.6 25328 lineto
48634 25602.8 lineto
48423.9 25813.3 lineto
48149.3 25927.3 lineto
47852 25927.6 lineto
47791.2 25902.4 lineto
47472.4 25902.4 lineto
47472.4 26470.8 lineto
47497.3 26530.7 lineto
47497.6 26828 lineto
47384 27102.8 lineto
47307 27180 lineto
47383.3 27256.1 lineto
47497.3 27530.7 lineto
47497.6 27828 lineto
47384 28102.8 lineto
47173.9 28313.3 lineto
46899.3 28427.3 lineto
46876.9 28427.3 lineto
47006.6 28588.7 lineto
47100.1 28908.3 lineto
46963.6 29042.2 lineto
46387.8 29042.2 lineto
46387.8 29034.3 lineto
46112.2 29034.3 lineto
46112.2 29042.2 lineto
46104.3 29042.2 lineto
46104.3 29317.8 lineto
46112.2 29317.8 lineto
46112.2 29325.7 lineto
46387.8 29325.7 lineto
46387.8 29317.8 lineto
46963.6 29317.8 lineto
47100.1 29451.7 lineto
47025.3 29707.6 lineto
47250 29707.6 lineto
47526.5 29762.6 lineto
47760.8 29919.2 lineto
48260.8 30419.2 lineto
48417.4 30653.5 lineto
48472.4 30930 lineto
48472.4 31685.9 lineto
49277.6 30880.8 lineto
49277.6 29624.1 lineto
49232.1 29395.4 lineto
49232.1 28964.6 lineto
49277.6 28735.9 lineto
49277.6 28430 lineto
49283 28402.4 lineto
49209.2 28402.4 lineto
49149.3 28427.3 lineto
48852 28427.6 lineto
48577.2 28314 lineto
48366.7 28103.9 lineto
48252.7 27829.3 lineto
48252.4 27532 lineto
48366 27257.2 lineto
48378.1 27245 lineto
48309.1 27176 lineto
48413.8 27071.4 lineto
48246.8 27057.2 lineto
48159.8 26740.3 lineto
48200.7 26414.2 lineto
48246.8 26302.8 lineto
48414.1 26288.6 lineto
48805.5 26680 lineto
48799.8 26685.8 lineto
48994.2 26880.2 lineto
49000 26874.5 lineto
49005.8 26880.2 lineto
49200.2 26685.8 lineto
49194.5 26680 lineto
49585.9 26288.6 lineto
49753.2 26302.8 lineto
49775.2 26383.1 lineto
49989.2 26169.2 lineto
50223.5 26012.6 lineto
50223.5 26012.6 lineto
50500 25957.6 lineto
50505.9 25957.6 lineto
49950.8 25402.5 lineto
49807.4 25402.6 lineto
49449.9 25254.9 lineto
49391.4 25196.5 lineto
49391.4 26094.1 lineto
49000 26485.5 lineto
48805.5 26291.1 lineto
48608.6 26094.1 lineto
48622.8 25926.8 lineto
48939.7 25839.8 lineto
49265.8 25880.7 lineto
49377.2 25926.8 lineto
49391.4 26094.1 lineto
49391.4 25196.5 lineto
49176.1 24981.6 lineto
49027.7 24624.3 lineto
49027.4 24237.4 lineto
49175.1 23879.9 lineto
49448.4 23606.1 lineto
49805.7 23457.7 lineto
50192.6 23457.4 lineto
50550.1 23605.1 lineto
50823.9 23878.4 lineto
50972.3 24235.7 lineto
50972.4 24380.7 lineto
51027.6 24435.9 lineto
51027.6 23836 lineto
51099.5 23662.4 lineto
51232.4 23529.5 lineto
51406 23457.6 lineto
51594 23457.6 lineto
52594 23457.6 lineto
52767.6 23529.5 lineto
52900.5 23662.4 lineto
52972.4 23836 lineto
52972.4 24024 lineto
52972.4 24380.8 lineto
53010.8 24419.2 lineto
53036.5 24457.6 lineto
53540.8 24457.6 lineto
53600.7 24432.7 lineto
53898 24432.4 lineto
54172.8 24546 lineto
54383.3 24756.1 lineto
54497.3 25030.7 lineto
54497.6 25328 lineto
54384 25602.8 lineto
54173.9 25813.3 lineto
53899.3 25927.3 lineto
53602 25927.6 lineto
53541.2 25902.4 lineto
53222.4 25902.4 lineto
53222.4 26470.8 lineto
53247.3 26530.7 lineto
53247.6 26828 lineto
53134 27102.8 lineto
53057 27180 lineto
53133.3 27256.1 lineto
53247.3 27530.7 lineto
53247.6 27828 lineto
53134 28102.8 lineto
52923.9 28313.3 lineto
52649.3 28427.3 lineto
52626.9 28427.3 lineto
52756.6 28588.7 lineto
52850.1 28908.3 lineto
52850.1 29451.7 lineto
52756.6 29771.3 lineto
52548 30030.8 lineto
52266.8 30180.1 lineto
52137.8 30071.9 lineto
52137.8 29317.8 lineto
52713.6 29317.8 lineto
52850.1 29451.7 lineto
52850.1 28908.3 lineto
52713.6 29042.2 lineto
52137.8 29042.2 lineto
52137.8 29034.3 lineto
51862.2 29034.3 lineto
51862.2 29042.2 lineto
51854.3 29042.2 lineto
51854.3 29317.8 lineto
51862.2 29317.8 lineto
51862.2 30071.9 lineto
51733.2 30180.1 lineto
51452 30030.8 lineto
51435.5 30010.3 lineto
51293.9 30104.9 lineto
51000 30163.3 lineto
50722.4 30108.1 lineto
50722.4 31180 lineto
50667.4 31456.5 lineto
50510.8 31690.8 lineto
48494.1 33707.6 lineto
51450.8 33707.6 lineto
55027.6 30130.8 lineto
55027.6 29624.1 lineto
54982.1 29395.4 lineto
54982.1 28964.6 lineto
55027.6 28735.9 lineto
55027.6 28430 lineto
55033 28402.4 lineto
54959.2 28402.4 lineto
54899.3 28427.3 lineto
54602 28427.6 lineto
54327.2 28314 lineto
54116.7 28103.9 lineto
54002.7 27829.3 lineto
54002.4 27532 lineto
54116 27257.2 lineto
54128.1 27245 lineto
54059.1 27176 lineto
54163.8 27071.4 lineto
53996.8 27057.2 lineto
53909.8 26740.3 lineto
53950.7 26414.2 lineto
53996.8 26302.8 lineto
54164.1 26288.6 lineto
54555.5 26680 lineto
54549.8 26685.8 lineto
54744.2 26880.2 lineto
54750 26874.5 lineto
54755.8 26880.2 lineto
54950.2 26685.8 lineto
54944.5 26680 lineto
55335.9 26288.6 lineto
55503.2 26302.8 lineto
55525.2 26383.1 lineto
55739.2 26169.2 lineto
55973.5 26012.6 lineto
55973.5 26012.6 lineto
56250 25957.6 lineto
56255.9 25957.6 lineto
55700.8 25402.5 lineto
55557.4 25402.6 lineto
55199.9 25254.9 lineto
55141.4 25196.5 lineto
55141.4 26094.1 lineto
54750 26485.5 lineto
54555.5 26291.1 lineto
54358.6 26094.1 lineto
54372.8 25926.8 lineto
54689.7 25839.8 lineto
55015.8 25880.7 lineto
55127.2 25926.8 lineto
55141.4 26094.1 lineto
55141.4 25196.5 lineto
54926.1 24981.6 lineto
54777.7 24624.3 lineto
54777.4 24237.4 lineto
54925.1 23879.9 lineto
55198.4 23606.1 lineto
55555.7 23457.7 lineto
55942.6 23457.4 lineto
56300.1 23605.1 lineto
56573.9 23878.4 lineto
56722.3 24235.7 lineto
56722.4 24380.7 lineto
56777.6 24435.9 lineto
56777.6 23836 lineto
56849.5 23662.4 lineto
56982.4 23529.5 lineto
57156 23457.6 lineto
57344 23457.6 lineto
58344 23457.6 lineto
58517.6 23529.5 lineto
58650.5 23662.4 lineto
58722.4 23836 lineto
58722.4 24024 lineto
58722.4 24380.8 lineto
58760.8 24419.2 lineto
58786.5 24457.6 lineto
59290.8 24457.6 lineto
59350.7 24432.7 lineto
59648 24432.4 lineto
59922.8 24546 lineto
60133.3 24756.1 lineto
60247.3 25030.7 lineto
60247.6 25328 lineto
60247.6 23874.6 lineto
59399.4 23026.5 lineto
59250 23026.5 lineto
59250 23026.5 lineto
58926.1 22962 lineto
58651.5 22778.5 lineto
58651.5 22778.5 lineto
58649.4 22776.5 lineto
54349.9 22776.5 lineto
54348.5 22778.5 lineto
54073.9 22962 lineto
53750 23026.5 lineto
53426.1 22962 lineto
53151.5 22778.5 lineto
53150.1 22776.5 lineto
48599.9 22776.5 lineto
48598.5 22778.5 lineto
48323.9 22962 lineto
48000 23026.5 lineto
47676.1 22962 lineto
47401.5 22778.5 lineto
47400.1 22776.5 lineto
42849.9 22776.5 lineto
42848.5 22778.5 lineto
42573.9 22962 lineto
42250 23026.5 lineto
41926.1 22962 lineto
41651.5 22778.5 lineto
41468 22503.9 lineto
41403.5 22180 lineto
41403.5 21930 lineto
41454.8 21672.1 lineto
35648.3 21672.1 lineto
35850.9 22160.1 lineto
35851.4 22697.6 lineto
35646.1 23194.4 lineto
35266.4 23574.8 lineto
34769.9 23780.9 lineto
34232.4 23781.4 lineto
33742.1 23578.8 lineto
33742.1 48031.7 lineto
34230.1 47829.1 lineto
34767.6 47828.6 lineto
35264.4 48033.9 lineto
35644.8 48413.6 lineto
35850.9 48910.1 lineto
35851.4 49447.6 lineto
35648.8 49937.9 lineto
35954.8 49937.9 lineto
35903.5 49680 lineto
35903.5 49430 lineto
35968 49106.1 lineto
36151.5 48831.5 lineto
36426.1 48648 lineto
36750 48583.5 lineto
37073.9 48648 lineto
37348.5 48831.5 lineto
37349.9 48833.5 lineto
41900.1 48833.5 lineto
41901.5 48831.5 lineto
42176.1 48648 lineto
42500 48583.5 lineto
42823.9 48648 lineto
43098.5 48831.5 lineto
43099.9 48833.5 lineto
47650.1 48833.5 lineto
47651.5 48831.5 lineto
47926.1 48648 lineto
48250 48583.5 lineto
48573.9 48648 lineto
48848.5 48831.5 lineto
48849.9 48833.5 lineto
53400.1 48833.5 lineto
53401.5 48831.5 lineto
53676.1 48648 lineto
54000 48583.5 lineto
54323.9 48648 lineto
54598.5 48831.5 lineto
54599.9 48833.5 lineto
59149.4 48833.5 lineto
62153.5 45829.4 lineto
62153.5 38030.6 lineto
61251.5 37128.5 lineto
61194.3 37152.3 lineto
60807.4 37152.6 lineto
60449.9 37004.9 lineto
60176.1 36731.6 lineto
60027.7 36374.3 lineto
60027.4 35987.4 lineto
60175.1 35629.9 lineto
60448.4 35356.1 lineto
60805.7 35207.7 lineto
60862.2 35207.7 lineto
60862.2 35093.4 lineto
60724.4 35231.2 lineto
60609.6 35231.2 lineto
60390.4 35231.2 lineto
60187.8 35147.3 lineto
60032.7 34992.2 lineto
59948.8 34789.6 lineto
59948.8 34455.6 lineto
60086.6 34317.8 lineto
60862.2 34317.8 lineto
60862.2 34325.7 lineto
61137.8 34325.7 lineto
61137.8 34317.8 lineto
61913.4 34317.8 lineto
62039.3 34443.7 lineto
62153.5 34329.4 lineto
62153.5 25780.6 lineto
poly1
314.961 setlinewidth
newpath
62153.5 25780.6 moveto
62051.2 25678.3 lineto
62051.2 33570.4 lineto
62051.2 33904.4 lineto
61913.4 34042.2 lineto
61137.8 34042.2 lineto
61137.8 33266.6 lineto
61275.6 33128.8 lineto
61390.4 33128.8 lineto
61609.6 33128.8 lineto
61812.2 33212.7 lineto
61967.3 33367.8 lineto
62051.2 33570.4 lineto
62051.2 25678.3 lineto
60862.2 24489.3 lineto
60862.2 33266.6 lineto
60862.2 34042.2 lineto
60086.6 34042.2 lineto
59948.8 33904.4 lineto
59948.8 33570.4 lineto
60032.7 33367.8 lineto
60187.8 33212.7 lineto
60390.4 33128.8 lineto
60609.6 33128.8 lineto
60724.4 33128.8 lineto
60862.2 33266.6 lineto
60862.2 24489.3 lineto
60247.6 23874.6 lineto
60247.6 25328 lineto
60134 25602.8 lineto
59923.9 25813.3 lineto
59649.3 25927.3 lineto
59590.2 25927.4 lineto
59352 25927.6 lineto
59291.2 25902.4 lineto
58972.4 25902.4 lineto
58972.4 26470.8 lineto
58997.3 26530.7 lineto
58997.6 26828 lineto
58884 27102.8 lineto
58807 27180 lineto
58883.3 27256.1 lineto
58997.3 27530.7 lineto
58997.6 27828 lineto
58884 28102.8 lineto
58673.9 28313.3 lineto
58399.3 28427.3 lineto
58376.9 28427.3 lineto
58506.6 28588.7 lineto
58600.1 28908.3 lineto
58600.1 29451.7 lineto
58506.6 29771.3 lineto
58298 30030.8 lineto
58016.8 30180.1 lineto
57887.8 30071.9 lineto
57887.8 29317.8 lineto
58463.6 29317.8 lineto
58600.1 29451.7 lineto
58600.1 28908.3 lineto
58463.6 29042.2 lineto
57887.8 29042.2 lineto
57887.8 29034.3 lineto
57612.2 29034.3 lineto
57612.2 29042.2 lineto
57604.3 29042.2 lineto
57604.3 29317.8 lineto
57612.2 29317.8 lineto
57612.2 30071.9 lineto
57483.2 30180.1 lineto
57202 30030.8 lineto
57185.5 30010.3 lineto
57143.7 30038.2 lineto
57143.7 39802 lineto
58260.8 40919.2 lineto
58417.4 41153.5 lineto
58472.4 41430 lineto
58472.4 41985.9 lineto
58517.9 42214.6 lineto
58517.9 42645.4 lineto
58472.4 42874.1 lineto
58472.4 43180 lineto
58465.6 43214.4 lineto
58500 43207.6 lineto
58540.8 43207.6 lineto
58600.7 43182.7 lineto
58898 43182.4 lineto
59172.8 43296 lineto
59383.3 43506.1 lineto
59497.3 43780.7 lineto
59497.6 44078 lineto
59384 44352.8 lineto
59371.9 44365 lineto
59440.9 44434 lineto
59336.2 44538.6 lineto
59503.2 44552.8 lineto
59590.2 44869.7 lineto
59549.3 45195.8 lineto
59503.2 45307.2 lineto
59335.9 45321.4 lineto
59141.4 45126.9 lineto
59141.4 45515.9 lineto
59127.2 45683.2 lineto
58810.3 45770.2 lineto
58484.2 45729.3 lineto
58372.8 45683.2 lineto
58358.6 45515.9 lineto
58750 45124.5 lineto
59141.4 45515.9 lineto
59141.4 45126.9 lineto
58944.5 44930 lineto
58950.2 44924.2 lineto
58755.8 44729.8 lineto
58750 44735.5 lineto
58744.2 44729.8 lineto
58549.8 44924.2 lineto
58555.5 44930 lineto
58164.1 45321.4 lineto
58132.9 45318.8 lineto
58010.8 45440.8 lineto
57776.5 45597.4 lineto
57500 45652.4 lineto
57244.1 45652.4 lineto
57799.2 46207.5 lineto
57942.6 46207.4 lineto
58300.1 46355.1 lineto
58573.9 46628.4 lineto
58722.3 46985.7 lineto
58722.6 47372.6 lineto
58574.9 47730.1 lineto
58301.6 48003.9 lineto
57944.3 48152.3 lineto
57557.4 48152.6 lineto
57199.9 48004.9 lineto
56926.1 47731.6 lineto
56777.7 47374.3 lineto
56777.6 47229.3 lineto
56722.4 47174.1 lineto
56722.4 47774 lineto
56650.5 47947.6 lineto
56517.6 48080.5 lineto
56344 48152.4 lineto
56156 48152.4 lineto
55156 48152.4 lineto
54982.4 48080.5 lineto
54849.5 47947.6 lineto
54777.6 47774 lineto
54777.6 47586 lineto
54777.6 47229.2 lineto
54739.2 47190.8 lineto
54713.5 47152.4 lineto
54209.2 47152.4 lineto
54149.3 47177.3 lineto
53852 47177.6 lineto
53577.2 47064 lineto
53366.7 46853.9 lineto
53252.7 46579.3 lineto
53252.4 46282 lineto
53366 46007.2 lineto
53576.1 45796.7 lineto
53850.7 45682.7 lineto
54148 45682.4 lineto
54208.8 45707.6 lineto
54527.6 45707.6 lineto
54527.6 45139.2 lineto
54502.7 45079.3 lineto
54502.4 44782 lineto
54616 44507.2 lineto
54693 44430.1 lineto
54616.7 44353.9 lineto
54502.7 44079.3 lineto
54502.4 43782 lineto
54616 43507.2 lineto
54826.1 43296.7 lineto
55100.7 43182.7 lineto
55123.1 43182.7 lineto
54993.4 43021.3 lineto
54899.9 42701.7 lineto
55036.4 42567.8 lineto
55612.2 42567.8 lineto
55612.2 42575.7 lineto
55887.8 42575.7 lineto
55887.8 42567.8 lineto
55895.7 42567.8 lineto
55895.7 42292.2 lineto
55887.8 42292.2 lineto
55887.8 41538.1 lineto
56016.8 41429.9 lineto
56298 41579.2 lineto
56314.5 41599.7 lineto
56456.1 41505.1 lineto
56745.8 41447.5 lineto
55612.2 40313.9 lineto
55612.2 41538.1 lineto
55612.2 42292.2 lineto
55036.4 42292.2 lineto
54899.9 42158.3 lineto
54993.4 41838.7 lineto
55202 41579.2 lineto
55483.2 41429.9 lineto
55612.2 41538.1 lineto
55612.2 40313.9 lineto
53840.2 38541.9 lineto
51450.8 36152.4 lineto
48494.1 36152.4 lineto
52510.8 40169.2 lineto
52667.4 40403.5 lineto
52722.4 40680 lineto
52722.4 41985.9 lineto
52767.9 42214.6 lineto
52767.9 42645.4 lineto
52722.4 42874.1 lineto
52722.4 43180 lineto
52715.6 43214.4 lineto
52750 43207.6 lineto
52790.8 43207.6 lineto
52850.7 43182.7 lineto
53148 43182.4 lineto
53422.8 43296 lineto
53633.3 43506.1 lineto
53747.3 43780.7 lineto
53747.6 44078 lineto
53634 44352.8 lineto
53621.9 44365 lineto
53690.9 44434 lineto
53586.2 44538.6 lineto
53753.2 44552.8 lineto
53840.2 44869.7 lineto
53799.3 45195.8 lineto
53753.2 45307.2 lineto
53585.9 45321.4 lineto
53391.4 45126.9 lineto
53391.4 45515.9 lineto
53377.2 45683.2 lineto
53060.3 45770.2 lineto
52734.2 45729.3 lineto
52622.8 45683.2 lineto
52608.6 45515.9 lineto
53000 45124.5 lineto
53391.4 45515.9 lineto
53391.4 45126.9 lineto
53194.5 44930 lineto
53200.2 44924.2 lineto
53005.8 44729.8 lineto
53000 44735.5 lineto
52994.2 44729.8 lineto
52799.8 44924.2 lineto
52805.5 44930 lineto
52414.1 45321.4 lineto
52382.9 45318.8 lineto
52260.8 45440.8 lineto
52026.5 45597.4 lineto
51750 45652.4 lineto
51494.1 45652.4 lineto
52049.2 46207.5 lineto
52192.6 46207.4 lineto
52550.1 46355.1 lineto
52823.9 46628.4 lineto
52972.3 46985.7 lineto
52972.6 47372.6 lineto
52824.9 47730.1 lineto
52551.6 48003.9 lineto
52194.3 48152.3 lineto
51807.4 48152.6 lineto
51449.9 48004.9 lineto
51176.1 47731.6 lineto
51027.7 47374.3 lineto
51027.6 47229.3 lineto
50972.4 47174.1 lineto
50972.4 47774 lineto
50900.5 47947.6 lineto
50767.6 48080.5 lineto
50594 48152.4 lineto
50406 48152.4 lineto
49406 48152.4 lineto
49232.4 48080.5 lineto
49099.5 47947.6 lineto
49027.6 47774 lineto
49027.6 47586 lineto
49027.6 47229.2 lineto
48989.2 47190.8 lineto
48963.5 47152.4 lineto
48459.2 47152.4 lineto
48399.3 47177.3 lineto
48102 47177.6 lineto
47827.2 47064 lineto
47616.7 46853.9 lineto
47502.7 46579.3 lineto
47502.4 46282 lineto
47616 46007.2 lineto
47826.1 45796.7 lineto
48100.7 45682.7 lineto
48398 45682.4 lineto
48458.8 45707.6 lineto
48777.6 45707.6 lineto
48777.6 45139.2 lineto
48752.7 45079.3 lineto
48752.4 44782 lineto
48866 44507.2 lineto
48943 44430.1 lineto
48866.7 44353.9 lineto
48752.7 44079.3 lineto
48752.4 43782 lineto
48866 43507.2 lineto
49076.1 43296.7 lineto
49350.7 43182.7 lineto
49373.1 43182.7 lineto
49243.4 43021.3 lineto
49149.9 42701.7 lineto
49286.4 42567.8 lineto
49862.2 42567.8 lineto
49862.2 42575.7 lineto
50137.8 42575.7 lineto
50137.8 42567.8 lineto
50145.7 42567.8 lineto
50145.7 42292.2 lineto
50137.8 42292.2 lineto
50137.8 41538.1 lineto
50266.8 41429.9 lineto
50548 41579.2 lineto
50564.5 41599.7 lineto
50706.1 41505.1 lineto
51000 41446.7 lineto
51277.6 41501.9 lineto
51277.6 40979.2 lineto
49862.2 39563.9 lineto
49862.2 41538.1 lineto
49862.2 42292.2 lineto
49286.4 42292.2 lineto
49149.9 42158.3 lineto
49243.4 41838.7 lineto
49452 41579.2 lineto
49733.2 41429.9 lineto
49862.2 41538.1 lineto
49862.2 39563.9 lineto
48472.4 38174.1 lineto
48472.4 40930 lineto
48417.4 41206.5 lineto
48260.8 41440.8 lineto
48090.2 41611.5 lineto
47008.4 42693.3 lineto
46972.4 42874.1 lineto
46972.4 43180 lineto
46967 43207.6 lineto
47040.8 43207.6 lineto
47100.7 43182.7 lineto
47398 43182.4 lineto
47672.8 43296 lineto
47883.3 43506.1 lineto
47997.3 43780.7 lineto
47997.6 44078 lineto
47884 44352.8 lineto
47871.9 44365 lineto
47940.9 44434 lineto
47836.2 44538.6 lineto
48003.2 44552.8 lineto
48090.2 44869.7 lineto
48049.3 45195.8 lineto
48003.2 45307.2 lineto
47835.9 45321.4 lineto
47641.4 45126.9 lineto
47641.4 45515.9 lineto
47627.2 45683.2 lineto
47310.3 45770.2 lineto
46984.2 45729.3 lineto
46872.8 45683.2 lineto
46858.6 45515.9 lineto
47250 45124.5 lineto
47641.4 45515.9 lineto
47641.4 45126.9 lineto
47444.5 44930 lineto
47450.2 44924.2 lineto
47255.8 44729.8 lineto
47250 44735.5 lineto
47244.2 44729.8 lineto
47049.8 44924.2 lineto
47055.5 44930 lineto
46664.1 45321.4 lineto
46496.8 45307.2 lineto
46474.8 45226.9 lineto
46260.8 45440.8 lineto
46026.5 45597.4 lineto
45750 45652.4 lineto
45744.1 45652.4 lineto
46299.2 46207.5 lineto
46442.6 46207.4 lineto
46800.1 46355.1 lineto
47073.9 46628.4 lineto
47222.3 46985.7 lineto
47222.6 47372.6 lineto
47074.9 47730.1 lineto
46801.6 48003.9 lineto
46444.3 48152.3 lineto
46057.4 48152.6 lineto
45699.9 48004.9 lineto
45426.1 47731.6 lineto
45277.7 47374.3 lineto
45277.6 47229.3 lineto
45222.4 47174.1 lineto
45222.4 47774 lineto
45150.5 47947.6 lineto
45017.6 48080.5 lineto
44844 48152.4 lineto
44656 48152.4 lineto
43656 48152.4 lineto
43482.4 48080.5 lineto
43349.5 47947.6 lineto
43277.6 47774 lineto
43277.6 47586 lineto
43277.6 47229.2 lineto
43239.2 47190.8 lineto
43213.5 47152.4 lineto
42709.2 47152.4 lineto
42649.3 47177.3 lineto
42352 47177.6 lineto
42077.2 47064 lineto
41866.7 46853.9 lineto
41752.7 46579.3 lineto
41752.4 46282 lineto
41866 46007.2 lineto
42076.1 45796.7 lineto
42350.7 45682.7 lineto
42648 45682.4 lineto
42708.8 45707.6 lineto
43027.6 45707.6 lineto
43027.6 45139.2 lineto
43002.7 45079.3 lineto
43002.4 44782 lineto
43116 44507.2 lineto
43193 44430.1 lineto
43116.7 44353.9 lineto
43002.7 44079.3 lineto
43002.4 43782 lineto
43116 43507.2 lineto
43326.1 43296.7 lineto
43600.7 43182.7 lineto
43623.1 43182.7 lineto
43493.4 43021.3 lineto
43399.9 42701.7 lineto
43536.4 42567.8 lineto
44112.2 42567.8 lineto
44112.2 42575.7 lineto
44387.8 42575.7 lineto
44387.8 42567.8 lineto
44395.7 42567.8 lineto
44395.7 42292.2 lineto
44387.8 42292.2 lineto
44387.8 41538.1 lineto
44516.8 41429.9 lineto
44798 41579.2 lineto
44814.5 41599.7 lineto
44956.1 41505.1 lineto
45250 41446.7 lineto
45543.9 41505.1 lineto
45750 41642.8 lineto
45956.1 41505.1 lineto
46202.1 41456.2 lineto
47027.6 40630.8 lineto
47027.6 40256.2 lineto
47025.3 40256.2 lineto
46887.5 40118.4 lineto
46887.5 39567.5 lineto
46895.7 39567.5 lineto
46895.7 39292.5 lineto
46887.5 39292.5 lineto
46887.5 39284.3 lineto
46612.5 39284.3 lineto
46612.5 39292.5 lineto
46612.5 39567.5 lineto
46612.5 40118.4 lineto
46474.7 40256.2 lineto
46365.4 40256.2 lineto
46162.8 40172.3 lineto
46007.7 40017.2 lineto
45923.8 39814.6 lineto
45923.8 39705.3 lineto
46061.6 39567.5 lineto
46612.5 39567.5 lineto
46612.5 39292.5 lineto
46061.6 39292.5 lineto
45923.8 39154.7 lineto
45923.8 39152.4 lineto
45703.7 39152.4 lineto
45708.1 39160.9 lineto
45708.1 39699.1 lineto
45585.6 39938.1 lineto
45338.2 40165.6 lineto
45022.6 40281.1 lineto
44887.8 40153.6 lineto
44887.8 39567.8 lineto
45600.1 39567.8 lineto
45708.1 39699.1 lineto
45708.1 39160.9 lineto
45600.1 39292.2 lineto
44887.8 39292.2 lineto
44887.8 39284.3 lineto
44612.2 39284.3 lineto
44612.2 39292.2 lineto
44604.3 39292.2 lineto
44604.3 39567.8 lineto
44612.2 39567.8 lineto
44612.2 40153.6 lineto
44477.4 40281.1 lineto
44454 40272.5 lineto
44417.4 40456.5 lineto
44260.8 40690.8 lineto
44112.2 40839.5 lineto
44112.2 41538.1 lineto
44112.2 42292.2 lineto
43536.4 42292.2 lineto
43399.9 42158.3 lineto
43493.4 41838.7 lineto
43702 41579.2 lineto
43983.2 41429.9 lineto
44112.2 41538.1 lineto
44112.2 40839.5 lineto
42340.2 42611.5 lineto
42010.8 42940.8 lineto
41776.5 43097.4 lineto
41500 43152.4 lineto
41222.4 43152.4 lineto
41222.4 43180 lineto
41215.6 43214.4 lineto
41250 43207.6 lineto
41290.8 43207.6 lineto
41350.7 43182.7 lineto
41648 43182.4 lineto
41922.8 43296 lineto
42133.3 43506.1 lineto
42247.3 43780.7 lineto
42247.6 44078 lineto
42134 44352.8 lineto
42121.9 44365 lineto
42190.9 44434 lineto
42086.2 44538.6 lineto
42253.2 44552.8 lineto
42340.2 44869.7 lineto
42299.3 45195.8 lineto
42253.2 45307.2 lineto
42085.9 45321.4 lineto
41891.4 45126.9 lineto
41891.4 45515.9 lineto
41877.2 45683.2 lineto
41560.3 45770.2 lineto
41234.2 45729.3 lineto
41122.8 45683.2 lineto
41108.6 45515.9 lineto
41500 45124.5 lineto
41891.4 45515.9 lineto
41891.4 45126.9 lineto
41694.5 44930 lineto
41700.2 44924.2 lineto
41505.8 44729.8 lineto
41500 44735.5 lineto
41494.2 44729.8 lineto
41299.8 44924.2 lineto
41305.5 44930 lineto
40914.1 45321.4 lineto
40882.9 45318.8 lineto
40760.8 45440.8 lineto
40526.5 45597.4 lineto
40250 45652.4 lineto
39994.1 45652.4 lineto
40549.2 46207.5 lineto
40692.6 46207.4 lineto
41050.1 46355.1 lineto
41323.9 46628.4 lineto
41472.3 46985.7 lineto
41472.6 47372.6 lineto
41324.9 47730.1 lineto
41051.6 48003.9 lineto
40694.3 48152.3 lineto
40307.4 48152.6 lineto
39949.9 48004.9 lineto
39676.1 47731.6 lineto
39527.7 47374.3 lineto
39527.6 47229.3 lineto
39472.4 47174.1 lineto
39472.4 47774 lineto
39400.5 47947.6 lineto
39267.6 48080.5 lineto
39094 48152.4 lineto
38906 48152.4 lineto
37906 48152.4 lineto
37732.4 48080.5 lineto
37599.5 47947.6 lineto
37527.6 47774 lineto
37527.6 47586 lineto
37527.6 47229.2 lineto
37489.2 47190.8 lineto
37463.5 47152.4 lineto
36959.2 47152.4 lineto
36899.3 47177.3 lineto
36602 47177.6 lineto
36327.2 47064 lineto
36116.7 46853.9 lineto
36002.7 46579.3 lineto
36002.4 46282 lineto
36116 46007.2 lineto
36326.1 45796.7 lineto
36600.7 45682.7 lineto
36898 45682.4 lineto
36958.8 45707.6 lineto
37277.6 45707.6 lineto
37277.6 45139.2 lineto
37252.7 45079.3 lineto
37252.4 44782 lineto
37366 44507.2 lineto
37443 44430.1 lineto
37366.7 44353.9 lineto
37252.7 44079.3 lineto
37252.4 43782 lineto
37366 43507.2 lineto
37576.1 43296.7 lineto
37850.7 43182.7 lineto
37873.1 43182.7 lineto
37743.4 43021.3 lineto
37649.9 42701.7 lineto
37786.4 42567.8 lineto
38362.2 42567.8 lineto
38362.2 42575.7 lineto
38637.8 42575.7 lineto
38637.8 42567.8 lineto
38645.7 42567.8 lineto
38645.7 42292.2 lineto
38637.8 42292.2 lineto
38637.8 41538.1 lineto
38766.8 41429.9 lineto
39048 41579.2 lineto
39064.5 41599.7 lineto
39206.1 41505.1 lineto
39500 41446.7 lineto
39793.9 41505.1 lineto
40000 41642.8 lineto
40206.1 41505.1 lineto
40500 41446.7 lineto
40793.9 41505.1 lineto
41043 41671.6 lineto
41067.1 41707.6 lineto
41200.8 41707.6 lineto
41755.9 41152.4 lineto
38362.2 41152.4 lineto
38362.2 41538.1 lineto
38362.2 42292.2 lineto
37786.4 42292.2 lineto
37649.9 42158.3 lineto
37743.4 41838.7 lineto
37952 41579.2 lineto
38233.2 41429.9 lineto
38362.2 41538.1 lineto
38362.2 41152.4 lineto
36000 41152.4 lineto
35723.5 41097.4 lineto
35489.2 40940.8 lineto
34726.3 40178 lineto
34630.4 40178 lineto
34456.8 40106.1 lineto
34323.9 39973.2 lineto
34252 39799.6 lineto
34252 39611.6 lineto
34252 39060.4 lineto
34306 38930 lineto
34252 38799.6 lineto
34252 38611.6 lineto
34252 38060.4 lineto
34306 37930 lineto
34252 37799.6 lineto
34252 37611.6 lineto
34252 37060.4 lineto
34306 36930 lineto
34252 36799.6 lineto
34252 36611.6 lineto
34252 36060.4 lineto
34306 35930 lineto
34252 35799.6 lineto
34252 35611.6 lineto
34252 35060.4 lineto
34266 35026.6 lineto
34257.1 35017.8 lineto
34173.2 34815.2 lineto
34173.2 34705.6 lineto
34311 34567.8 lineto
34435 34567.8 lineto
34435 34292.2 lineto
34311 34292.2 lineto
34173.2 34154.4 lineto
34173.2 34044.8 lineto
34257.1 33842.2 lineto
34266 33833.4 lineto
34252 33799.6 lineto
34252 33611.6 lineto
34252 33060.4 lineto
34306 32930 lineto
34252 32799.6 lineto
34252 32611.6 lineto
34252 32060.4 lineto
34323.9 31886.8 lineto
34456.8 31753.9 lineto
34630.4 31682 lineto
34818.4 31682 lineto
35369.6 31682 lineto
35431.3 31707.6 lineto
36568.7 31707.6 lineto
36630.4 31682 lineto
36818.4 31682 lineto
37369.6 31682 lineto
37543.2 31753.9 lineto
37676.1 31886.8 lineto
37748 32060.4 lineto
37748 32248.4 lineto
37748 32707.6 lineto
37950.8 32707.6 lineto
38591.2 32067.1 lineto
38616 32007.2 lineto
38826.1 31796.7 lineto
39100.7 31682.7 lineto
39398 31682.4 lineto
39458.8 31707.6 lineto
39505.9 31707.6 lineto
37989.2 30190.8 lineto
37832.6 29956.5 lineto
37777.6 29680 lineto
37777.6 29624.1 lineto
37732.1 29395.4 lineto
37732.1 28964.6 lineto
37777.6 28735.9 lineto
37777.6 28430 lineto
37783 28402.4 lineto
37709.2 28402.4 lineto
37649.3 28427.3 lineto
37352 28427.6 lineto
37077.2 28314 lineto
36866.7 28103.9 lineto
36752.7 27829.3 lineto
36752.4 27532 lineto
36866 27257.2 lineto
36878.1 27245 lineto
36809.1 27176 lineto
36913.8 27071.4 lineto
36746.8 27057.2 lineto
36659.8 26740.3 lineto
36700.7 26414.2 lineto
36746.8 26302.8 lineto
36914.1 26288.6 lineto
37305.5 26680 lineto
37299.8 26685.8 lineto
37494.2 26880.2 lineto
37500 26874.5 lineto
37505.8 26880.2 lineto
37700.2 26685.8 lineto
37694.5 26680 lineto
38085.9 26288.6 lineto
38253.2 26302.8 lineto
38275.2 26383.1 lineto
38489.2 26169.2 lineto
38723.5 26012.6 lineto
38723.5 26012.6 lineto
39000 25957.6 lineto
39005.9 25957.6 lineto
38450.8 25402.5 lineto
38307.4 25402.6 lineto
37949.9 25254.9 lineto
37891.4 25196.5 lineto
37891.4 26094.1 lineto
37500 26485.5 lineto
37305.5 26291.1 lineto
37108.6 26094.1 lineto
37122.8 25926.8 lineto
37439.7 25839.8 lineto
37765.8 25880.7 lineto
37877.2 25926.8 lineto
37891.4 26094.1 lineto
37891.4 25196.5 lineto
37676.1 24981.6 lineto
37527.7 24624.3 lineto
37527.4 24237.4 lineto
37675.1 23879.9 lineto
37948.4 23606.1 lineto
38305.7 23457.7 lineto
38692.6 23457.4 lineto
39050.1 23605.1 lineto
39323.9 23878.4 lineto
39472.3 24235.7 lineto
39472.4 24380.7 lineto
39527.6 24435.9 lineto
39527.6 23836 lineto
39599.5 23662.4 lineto
39732.4 23529.5 lineto
39906 23457.6 lineto
40094 23457.6 lineto
41094 23457.6 lineto
41267.6 23529.5 lineto
41400.5 23662.4 lineto
41472.4 23836 lineto
41472.4 24024 lineto
41472.4 24380.8 lineto
41510.8 24419.2 lineto
41536.5 24457.6 lineto
42040.8 24457.6 lineto
42100.7 24432.7 lineto
42398 24432.4 lineto
42672.8 24546 lineto
42883.3 24756.1 lineto
42997.3 25030.7 lineto
42997.6 25328 lineto
42884 25602.8 lineto
42673.9 25813.3 lineto
42399.3 25927.3 lineto
42102 25927.6 lineto
42041.2 25902.4 lineto
41722.4 25902.4 lineto
41722.4 26470.8 lineto
41747.3 26530.7 lineto
41747.6 26828 lineto
41634 27102.8 lineto
41557 27180 lineto
41633.3 27256.1 lineto
41747.3 27530.7 lineto
41747.6 27828 lineto
41634 28102.8 lineto
41423.9 28313.3 lineto
41149.3 28427.3 lineto
41126.9 28427.3 lineto
41256.6 28588.7 lineto
41350.1 28908.3 lineto
41350.1 29451.7 lineto
41256.6 29771.3 lineto
41048 30030.8 lineto
40766.8 30180.1 lineto
40637.8 30071.9 lineto
40637.8 29317.8 lineto
41213.6 29317.8 lineto
41350.1 29451.7 lineto
41350.1 28908.3 lineto
41213.6 29042.2 lineto
40637.8 29042.2 lineto
40637.8 29034.3 lineto
40362.2 29034.3 lineto
40362.2 29042.2 lineto
40354.3 29042.2 lineto
40354.3 29317.8 lineto
40362.2 29317.8 lineto
40362.2 30071.9 lineto
40233.2 30180.1 lineto
39952 30030.8 lineto
39935.5 30010.3 lineto
39885.4 30043.7 lineto
40549.2 30707.6 lineto
43250 30707.6 lineto
44255.9 30707.6 lineto
43739.2 30190.8 lineto
43582.6 29956.5 lineto
43527.6 29680 lineto
43527.6 29624.1 lineto
43482.1 29395.4 lineto
43482.1 28964.6 lineto
43527.6 28735.9 lineto
43527.6 28430 lineto
43533 28402.4 lineto
43459.2 28402.4 lineto
43399.3 28427.3 lineto
43102 28427.6 lineto
42827.2 28314 lineto
42616.7 28103.9 lineto
42502.7 27829.3 lineto
42502.4 27532 lineto
42616 27257.2 lineto
42628.1 27245 lineto
42559.1 27176 lineto
42663.8 27071.4 lineto
42496.8 27057.2 lineto
42409.8 26740.3 lineto
42450.7 26414.2 lineto
42496.8 26302.8 lineto
42664.1 26288.6 lineto
43055.5 26680 lineto
43049.8 26685.8 lineto
43244.2 26880.2 lineto
43250 26874.5 lineto
43255.8 26880.2 lineto
43450.2 26685.8 lineto
43444.5 26680 lineto
43835.9 26288.6 lineto
44003.2 26302.8 lineto
44025.2 26383.1 lineto
44239.2 26169.2 lineto
44473.5 26012.6 lineto
44473.5 26012.6 lineto
44750 25957.6 lineto
44755.9 25957.6 lineto
44200.8 25402.5 lineto
44057.4 25402.6 lineto
43699.9 25254.9 lineto
43641.4 25196.5 lineto
43641.4 26094.1 lineto
43250 26485.5 lineto
43055.5 26291.1 lineto
42858.6 26094.1 lineto
42872.8 25926.8 lineto
43189.7 25839.8 lineto
43515.8 25880.7 lineto
43627.2 25926.8 lineto
43641.4 26094.1 lineto
43641.4 25196.5 lineto
43426.1 24981.6 lineto
43277.7 24624.3 lineto
43277.4 24237.4 lineto
43425.1 23879.9 lineto
43698.4 23606.1 lineto
44055.7 23457.7 lineto
44442.6 23457.4 lineto
44800.1 23605.1 lineto
45073.9 23878.4 lineto
45222.3 24235.7 lineto
45222.4 24380.7 lineto
45277.6 24435.9 lineto
45277.6 23836 lineto
45349.5 23662.4 lineto
45482.4 23529.5 lineto
45656 23457.6 lineto
45844 23457.6 lineto
46844 23457.6 lineto
47017.6 23529.5 lineto
47150.5 23662.4 lineto
47222.4 23836 lineto
47222.4 24024 lineto
47222.4 24380.8 lineto
47260.8 24419.2 lineto
47286.5 24457.6 lineto
47790.8 24457.6 lineto
47850.7 24432.7 lineto
48148 24432.4 lineto
48422.8 24546 lineto
48633.3 24756.1 lineto
48747.3 25030.7 lineto
48747.6 25328 lineto
48634 25602.8 lineto
48423.9 25813.3 lineto
48149.3 25927.3 lineto
47852 25927.6 lineto
47791.2 25902.4 lineto
47472.4 25902.4 lineto
47472.4 26470.8 lineto
47497.3 26530.7 lineto
47497.6 26828 lineto
47384 27102.8 lineto
47307 27180 lineto
47383.3 27256.1 lineto
47497.3 27530.7 lineto
47497.6 27828 lineto
47384 28102.8 lineto
47173.9 28313.3 lineto
46899.3 28427.3 lineto
46876.9 28427.3 lineto
47006.6 28588.7 lineto
47100.1 28908.3 lineto
46963.6 29042.2 lineto
46387.8 29042.2 lineto
46387.8 29034.3 lineto
46112.2 29034.3 lineto
46112.2 29042.2 lineto
46104.3 29042.2 lineto
46104.3 29317.8 lineto
46112.2 29317.8 lineto
46112.2 29325.7 lineto
46387.8 29325.7 lineto
46387.8 29317.8 lineto
46963.6 29317.8 lineto
47100.1 29451.7 lineto
47025.3 29707.6 lineto
47250 29707.6 lineto
47526.5 29762.6 lineto
47760.8 29919.2 lineto
48260.8 30419.2 lineto
48417.4 30653.5 lineto
48472.4 30930 lineto
48472.4 31685.9 lineto
49277.6 30880.8 lineto
49277.6 29624.1 lineto
49232.1 29395.4 lineto
49232.1 28964.6 lineto
49277.6 28735.9 lineto
49277.6 28430 lineto
49283 28402.4 lineto
49209.2 28402.4 lineto
49149.3 28427.3 lineto
48852 28427.6 lineto
48577.2 28314 lineto
48366.7 28103.9 lineto
48252.7 27829.3 lineto
48252.4 27532 lineto
48366 27257.2 lineto
48378.1 27245 lineto
48309.1 27176 lineto
48413.8 27071.4 lineto
48246.8 27057.2 lineto
48159.8 26740.3 lineto
48200.7 26414.2 lineto
48246.8 26302.8 lineto
48414.1 26288.6 lineto
48805.5 26680 lineto
48799.8 26685.8 lineto
48994.2 26880.2 lineto
49000 26874.5 lineto
49005.8 26880.2 lineto
49200.2 26685.8 lineto
49194.5 26680 lineto
49585.9 26288.6 lineto
49753.2 26302.8 lineto
49775.2 26383.1 lineto
49989.2 26169.2 lineto
50223.5 26012.6 lineto
50223.5 26012.6 lineto
50500 25957.6 lineto
50505.9 25957.6 lineto
49950.8 25402.5 lineto
49807.4 25402.6 lineto
49449.9 25254.9 lineto
49391.4 25196.5 lineto
49391.4 26094.1 lineto
49000 26485.5 lineto
48805.5 26291.1 lineto
48608.6 26094.1 lineto
48622.8 25926.8 lineto
48939.7 25839.8 lineto
49265.8 25880.7 lineto
49377.2 25926.8 lineto
49391.4 26094.1 lineto
49391.4 25196.5 lineto
49176.1 24981.6 lineto
49027.7 24624.3 lineto
49027.4 24237.4 lineto
49175.1 23879.9 lineto
49448.4 23606.1 lineto
49805.7 23457.7 lineto
50192.6 23457.4 lineto
50550.1 23605.1 lineto
50823.9 23878.4 lineto
50972.3 24235.7 lineto
50972.4 24380.7 lineto
51027.6 24435.9 lineto
51027.6 23836 lineto
51099.5 23662.4 lineto
51232.4 23529.5 lineto
51406 23457.6 lineto
51594 23457.6 lineto
52594 23457.6 lineto
52767.6 23529.5 lineto
52900.5 23662.4 lineto
52972.4 23836 lineto
52972.4 24024 lineto
52972.4 24380.8 lineto
53010.8 24419.2 lineto
53036.5 24457.6 lineto
53540.8 24457.6 lineto
53600.7 24432.7 lineto
53898 24432.4 lineto
54172.8 24546 lineto
54383.3 24756.1 lineto
54497.3 25030.7 lineto
54497.6 25328 lineto
54384 25602.8 lineto
54173.9 25813.3 lineto
53899.3 25927.3 lineto
53602 25927.6 lineto
53541.2 25902.4 lineto
53222.4 25902.4 lineto
53222.4 26470.8 lineto
53247.3 26530.7 lineto
53247.6 26828 lineto
53134 27102.8 lineto
53057 27180 lineto
53133.3 27256.1 lineto
53247.3 27530.7 lineto
53247.6 27828 lineto
53134 28102.8 lineto
52923.9 28313.3 lineto
52649.3 28427.3 lineto
52626.9 28427.3 lineto
52756.6 28588.7 lineto
52850.1 28908.3 lineto
52850.1 29451.7 lineto
52756.6 29771.3 lineto
52548 30030.8 lineto
52266.8 30180.1 lineto
52137.8 30071.9 lineto
52137.8 29317.8 lineto
52713.6 29317.8 lineto
52850.1 29451.7 lineto
52850.1 28908.3 lineto
52713.6 29042.2 lineto
52137.8 29042.2 lineto
52137.8 29034.3 lineto
51862.2 29034.3 lineto
51862.2 29042.2 lineto
51854.3 29042.2 lineto
51854.3 29317.8 lineto
51862.2 29317.8 lineto
51862.2 30071.9 lineto
51733.2 30180.1 lineto
51452 30030.8 lineto
51435.5 30010.3 lineto
51293.9 30104.9 lineto
51000 30163.3 lineto
50722.4 30108.1 lineto
50722.4 31180 lineto
50667.4 31456.5 lineto
50510.8 31690.8 lineto
48494.1 33707.6 lineto
51450.8 33707.6 lineto
55027.6 30130.8 lineto
55027.6 29624.1 lineto
54982.1 29395.4 lineto
54982.1 28964.6 lineto
55027.6 28735.9 lineto
55027.6 28430 lineto
55033 28402.4 lineto
54959.2 28402.4 lineto
54899.3 28427.3 lineto
54602 28427.6 lineto
54327.2 28314 lineto
54116.7 28103.9 lineto
54002.7 27829.3 lineto
54002.4 27532 lineto
54116 27257.2 lineto
54128.1 27245 lineto
54059.1 27176 lineto
54163.8 27071.4 lineto
53996.8 27057.2 lineto
53909.8 26740.3 lineto
53950.7 26414.2 lineto
53996.8 26302.8 lineto
54164.1 26288.6 lineto
54555.5 26680 lineto
54549.8 26685.8 lineto
54744.2 26880.2 lineto
54750 26874.5 lineto
54755.8 26880.2 lineto
54950.2 26685.8 lineto
54944.5 26680 lineto
55335.9 26288.6 lineto
55503.2 26302.8 lineto
55525.2 26383.1 lineto
55739.2 26169.2 lineto
55973.5 26012.6 lineto
55973.5 26012.6 lineto
56250 25957.6 lineto
56255.9 25957.6 lineto
55700.8 25402.5 lineto
55557.4 25402.6 lineto
55199.9 25254.9 lineto
55141.4 25196.5 lineto
55141.4 26094.1 lineto
54750 26485.5 lineto
54555.5 26291.1 lineto
54358.6 26094.1 lineto
54372.8 25926.8 lineto
54689.7 25839.8 lineto
55015.8 25880.7 lineto
55127.2 25926.8 lineto
55141.4 26094.1 lineto
55141.4 25196.5 lineto
54926.1 24981.6 lineto
54777.7 24624.3 lineto
54777.4 24237.4 lineto
54925.1 23879.9 lineto
55198.4 23606.1 lineto
55555.7 23457.7 lineto
55942.6 23457.4 lineto
56300.1 23605.1 lineto
56573.9 23878.4 lineto
56722.3 24235.7 lineto
56722.4 24380.7 lineto
56777.6 24435.9 lineto
56777.6 23836 lineto
56849.5 23662.4 lineto
56982.4 23529.5 lineto
57156 23457.6 lineto
57344 23457.6 lineto
58344 23457.6 lineto
58517.6 23529.5 lineto
58650.5 23662.4 lineto
58722.4 23836 lineto
58722.4 24024 lineto
58722.4 24380.8 lineto
58760.8 24419.2 lineto
58786.5 24457.6 lineto
59290.8 24457.6 lineto
59350.7 24432.7 lineto
59648 24432.4 lineto
59922.8 24546 lineto
60133.3 24756.1 lineto
60247.3 25030.7 lineto
60247.6 25328 lineto
60247.6 23874.6 lineto
59399.4 23026.5 lineto
59250 23026.5 lineto
59250 23026.5 lineto
58926.1 22962 lineto
58651.5 22778.5 lineto
58651.5 22778.5 lineto
58649.4 22776.5 lineto
54349.9 22776.5 lineto
54348.5 22778.5 lineto
54073.9 22962 lineto
53750 23026.5 lineto
53426.1 22962 lineto
53151.5 22778.5 lineto
53150.1 22776.5 lineto
48599.9 22776.5 lineto
48598.5 22778.5 lineto
48323.9 22962 lineto
48000 23026.5 lineto
47676.1 22962 lineto
47401.5 22778.5 lineto
47400.1 22776.5 lineto
42849.9 22776.5 lineto
42848.5 22778.5 lineto
42573.9 22962 lineto
42250 23026.5 lineto
41926.1 22962 lineto
41651.5 22778.5 lineto
41468 22503.9 lineto
41403.5 22180 lineto
41403.5 21930 lineto
41454.8 21672.1 lineto
35648.3 21672.1 lineto
35850.9 22160.1 lineto
35851.4 22697.6 lineto
35646.1 23194.4 lineto
35266.4 23574.8 lineto
34769.9 23780.9 lineto
34232.4 23781.4 lineto
33742.1 23578.8 lineto
33742.1 48031.7 lineto
34230.1 47829.1 lineto
34767.6 47828.6 lineto
35264.4 48033.9 lineto
35644.8 48413.6 lineto
35850.9 48910.1 lineto
35851.4 49447.6 lineto
35648.8 49937.9 lineto
35954.8 49937.9 lineto
35903.5 49680 lineto
35903.5 49430 lineto
35968 49106.1 lineto
36151.5 48831.5 lineto
36426.1 48648 lineto
36750 48583.5 lineto
37073.9 48648 lineto
37348.5 48831.5 lineto
37349.9 48833.5 lineto
41900.1 48833.5 lineto
41901.5 48831.5 lineto
42176.1 48648 lineto
42500 48583.5 lineto
42823.9 48648 lineto
43098.5 48831.5 lineto
43099.9 48833.5 lineto
47650.1 48833.5 lineto
47651.5 48831.5 lineto
47926.1 48648 lineto
48250 48583.5 lineto
48573.9 48648 lineto
48848.5 48831.5 lineto
48849.9 48833.5 lineto
53400.1 48833.5 lineto
53401.5 48831.5 lineto
53676.1 48648 lineto
54000 48583.5 lineto
54323.9 48648 lineto
54598.5 48831.5 lineto
54599.9 48833.5 lineto
59149.4 48833.5 lineto
62153.5 45829.4 lineto
62153.5 38030.6 lineto
61251.5 37128.5 lineto
61194.3 37152.3 lineto
60807.4 37152.6 lineto
60449.9 37004.9 lineto
60176.1 36731.6 lineto
60027.7 36374.3 lineto
60027.4 35987.4 lineto
60175.1 35629.9 lineto
60448.4 35356.1 lineto
60805.7 35207.7 lineto
60862.2 35207.7 lineto
60862.2 35093.4 lineto
60724.4 35231.2 lineto
60609.6 35231.2 lineto
60390.4 35231.2 lineto
60187.8 35147.3 lineto
60032.7 34992.2 lineto
59948.8 34789.6 lineto
59948.8 34455.6 lineto
60086.6 34317.8 lineto
60862.2 34317.8 lineto
60862.2 34325.7 lineto
61137.8 34325.7 lineto
61137.8 34317.8 lineto
61913.4 34317.8 lineto
62039.3 34443.7 lineto
62153.5 34329.4 lineto
62153.5 25780.6 lineto
poly0
1 1 1 setrgbcolor
59.0551 setlinewidth
39250 27680 39.3701 cir1
39250 26680 39.3701 cir1
45000 27680 39.3701 cir1
45000 26680 39.3701 cir1
50750 27680 39.3701 cir1
50750 26680 39.3701 cir1
56500 27680 39.3701 cir1
56500 26680 39.3701 cir1
57000 43930 39.3701 cir1
57000 44930 39.3701 cir1
51250 43930 39.3701 cir1
51250 44930 39.3701 cir1
45500 43930 39.3701 cir1
45500 44930 39.3701 cir1
39750 43930 39.3701 cir1
39750 44930 39.3701 cir1
40500 24430 39.3701 cir1
38500 24430 39.3701 cir1
46250 24430 39.3701 cir1
44250 24430 39.3701 cir1
52000 24430 39.3701 cir1
50000 24430 39.3701 cir1
57750 24430 39.3701 cir1
55750 24430 39.3701 cir1
55750 47180 39.3701 cir1
57750 47180 39.3701 cir1
50000 47180 39.3701 cir1
52000 47180 39.3701 cir1
44250 47180 39.3701 cir1
46250 47180 39.3701 cir1
38500 47180 39.3701 cir1
40500 47180 39.3701 cir1
35000 32430 39.3701 cir1
35000 33430 39.3701 cir1
35000 34430 39.3701 cir1
35000 35430 39.3701 cir1
35000 36430 39.3701 cir1
35000 37430 39.3701 cir1
35000 38430 39.3701 cir1
35000 39430 39.3701 cir1
61000 34180 39.3701 cir1
61000 36180 39.3701 cir1
39500 29180 39.3701 cir1
38500 29180 39.3701 cir1
40500 29180 39.3701 cir1
45250 29180 39.3701 cir1
44250 29180 39.3701 cir1
46250 29180 39.3701 cir1
51000 29180 39.3701 cir1
50000 29180 39.3701 cir1
52000 29180 39.3701 cir1
56750 29180 39.3701 cir1
55750 29180 39.3701 cir1
57750 29180 39.3701 cir1
56750 42430 39.3701 cir1
57750 42430 39.3701 cir1
55750 42430 39.3701 cir1
51000 42430 39.3701 cir1
52000 42430 39.3701 cir1
50000 42430 39.3701 cir1
45250 42430 39.3701 cir1
46250 42430 39.3701 cir1
44250 42430 39.3701 cir1
39500 42430 39.3701 cir1
40500 42430 39.3701 cir1
38500 42430 39.3701 cir1
44750 32430 39.3701 cir1
44750 33430 39.3701 cir1
44750 34430 39.3701 cir1
44750 35430 39.3701 cir1
44750 36430 39.3701 cir1
44750 37430 39.3701 cir1
44750 38430 39.3701 cir1
44750 39430 39.3701 cir1
41750 39430 39.3701 cir1
41750 38430 39.3701 cir1
41750 37430 39.3701 cir1
41750 36430 39.3701 cir1
41750 35430 39.3701 cir1
41750 34430 39.3701 cir1
41750 33430 39.3701 cir1
41750 32430 39.3701 cir1
46750 39430 39.3701 cir1
46750 38430 39.3701 cir1
46750 37430 39.3701 cir1
46750 36430 39.3701 cir1
46750 35430 39.3701 cir1
46750 34430 39.3701 cir1
46750 33430 39.3701 cir1
46750 32430 39.3701 cir1
46750 31430 39.3701 cir1
37500 27680 39.3701 cir1
37500 26680 39.3701 cir1
43250 27680 39.3701 cir1
43250 26680 39.3701 cir1
49000 27680 39.3701 cir1
49000 26680 39.3701 cir1
54750 27680 39.3701 cir1
54750 26680 39.3701 cir1
58750 43930 39.3701 cir1
58750 44930 39.3701 cir1
53000 43930 39.3701 cir1
53000 44930 39.3701 cir1
47250 43930 39.3701 cir1
47250 44930 39.3701 cir1
41500 43930 39.3701 cir1
41500 44930 39.3701 cir1
41000 27680 39.3701 cir1
41000 26680 39.3701 cir1
46750 27680 39.3701 cir1
46750 26680 39.3701 cir1
52500 27680 39.3701 cir1
52500 26680 39.3701 cir1
58250 27680 39.3701 cir1
58250 26680 39.3701 cir1
55250 43930 39.3701 cir1
55250 44930 39.3701 cir1
49500 43930 39.3701 cir1
49500 44930 39.3701 cir1
43750 43930 39.3701 cir1
43750 44930 39.3701 cir1
38000 43930 39.3701 cir1
38000 44930 39.3701 cir1
42250 25180 39.3701 cir1
42250 22180 39.3701 cir1
48000 25180 39.3701 cir1
48000 22180 39.3701 cir1
53750 25180 39.3701 cir1
53750 22180 39.3701 cir1
59500 25180 39.3701 cir1
59500 22180 39.3701 cir1
54000 46430 39.3701 cir1
54000 49430 39.3701 cir1
48250 46430 39.3701 cir1
48250 49430 39.3701 cir1
42500 46430 39.3701 cir1
42500 49430 39.3701 cir1
36750 46430 39.3701 cir1
36750 49430 39.3701 cir1
37000 32430 39.3701 cir1
37000 33430 39.3701 cir1
37000 34430 39.3701 cir1
37000 35430 39.3701 cir1
37000 36430 39.3701 cir1
37000 37430 39.3701 cir1
37000 38430 39.3701 cir1
37000 39430 39.3701 cir1
39250 32430 39.3701 cir1
39250 34430 39.3701 cir1
62500 49180 39.3701 cir1
62500 22430 39.3701 cir1
34500 49180 39.3701 cir1
34500 22430 39.3701 cir1
40500 36430 39.3701 cir1
40500 34430 39.3701 cir1
39500 36430 39.3701 cir1
38500 36430 39.3701 cir1
0 0 0 setrgbcolor
showpage
grestore
%%EOF
